EESchema Schematic File Version 4
LIBS:Subsonic_Filter-cache
EELAYER 26 0
EELAYER END
$Descr A3 16535 11693
encoding utf-8
Sheet 1 1
Title ""
Date ""
Rev ""
Comp ""
Comment1 ""
Comment2 ""
Comment3 ""
Comment4 ""
$EndDescr
$Comp
L Amplifier_Operational:NE5532 U1
U 3 1 5B7F9E1F
P 4250 8650
F 0 "U1" H 4208 8696 50  0000 L CNN
F 1 "NE5532" H 4208 8605 50  0000 L CNN
F 2 "Package_DIP:DIP-8_W7.62mm_LongPads" H 4250 8650 50  0001 C CNN
F 3 "http://www.ti.com/lit/ds/symlink/ne5532.pdf" H 4250 8650 50  0001 C CNN
	3    4250 8650
	1    0    0    -1  
$EndComp
$Comp
L Device:R R5
U 1 1 5B7F9F59
P 5850 3550
F 0 "R5" H 5920 3596 50  0000 L CNN
F 1 "220k" H 5920 3505 50  0000 L CNN
F 2 "Resistor_THT:R_Axial_DIN0204_L3.6mm_D1.6mm_P7.62mm_Horizontal" V 5780 3550 50  0001 C CNN
F 3 "~" H 5850 3550 50  0001 C CNN
	1    5850 3550
	1    0    0    -1  
$EndComp
Wire Wire Line
	5850 3400 5850 3200
Wire Wire Line
	5850 3200 6200 3200
$Comp
L Device:C C8
U 1 1 5B7FA041
P 5550 3200
F 0 "C8" V 5298 3200 50  0000 C CNN
F 1 "150n" V 5389 3200 50  0000 C CNN
F 2 "Capacitor_THT:C_Rect_L7.0mm_W2.0mm_P5.00mm" H 5588 3050 50  0001 C CNN
F 3 "~" H 5550 3200 50  0001 C CNN
	1    5550 3200
	0    1    1    0   
$EndComp
Wire Wire Line
	5700 3200 5850 3200
Connection ~ 5850 3200
$Comp
L Device:C C6
U 1 1 5B7FA13C
P 5150 3200
F 0 "C6" V 4898 3200 50  0000 C CNN
F 1 "150n" V 4989 3200 50  0000 C CNN
F 2 "Capacitor_THT:C_Rect_L7.0mm_W2.0mm_P5.00mm" H 5188 3050 50  0001 C CNN
F 3 "~" H 5150 3200 50  0001 C CNN
	1    5150 3200
	0    1    1    0   
$EndComp
Wire Wire Line
	5300 3200 5350 3200
$Comp
L Device:R R3
U 1 1 5B7FA1D5
P 5350 2700
F 0 "R3" H 5420 2746 50  0000 L CNN
F 1 "47k" H 5420 2655 50  0000 L CNN
F 2 "Resistor_THT:R_Axial_DIN0204_L3.6mm_D1.6mm_P7.62mm_Horizontal" V 5280 2700 50  0001 C CNN
F 3 "~" H 5350 2700 50  0001 C CNN
	1    5350 2700
	1    0    0    -1  
$EndComp
$Comp
L power:GND #PWR06
U 1 1 5B7FA28A
P 5850 3700
F 0 "#PWR06" H 5850 3450 50  0001 C CNN
F 1 "GND" H 5855 3527 50  0000 C CNN
F 2 "" H 5850 3700 50  0001 C CNN
F 3 "" H 5850 3700 50  0001 C CNN
	1    5850 3700
	1    0    0    -1  
$EndComp
Wire Wire Line
	5350 3200 5350 2850
Connection ~ 5350 3200
Wire Wire Line
	5350 3200 5400 3200
$Comp
L Device:C C4
U 1 1 5B7FA487
P 4750 3200
F 0 "C4" V 4498 3200 50  0000 C CNN
F 1 "150n" V 4589 3200 50  0000 C CNN
F 2 "Capacitor_THT:C_Rect_L7.0mm_W2.0mm_P5.00mm" H 4788 3050 50  0001 C CNN
F 3 "~" H 4750 3200 50  0001 C CNN
	1    4750 3200
	0    1    1    0   
$EndComp
Wire Wire Line
	4900 3200 4950 3200
$Comp
L Device:R R1
U 1 1 5B7FA576
P 4950 3550
F 0 "R1" H 5020 3596 50  0000 L CNN
F 1 "100k" H 5020 3505 50  0000 L CNN
F 2 "Resistor_THT:R_Axial_DIN0204_L3.6mm_D1.6mm_P7.62mm_Horizontal" V 4880 3550 50  0001 C CNN
F 3 "~" H 4950 3550 50  0001 C CNN
	1    4950 3550
	1    0    0    -1  
$EndComp
$Comp
L power:GND #PWR04
U 1 1 5B7FA5BC
P 4950 3700
F 0 "#PWR04" H 4950 3450 50  0001 C CNN
F 1 "GND" H 4955 3527 50  0000 C CNN
F 2 "" H 4950 3700 50  0001 C CNN
F 3 "" H 4950 3700 50  0001 C CNN
	1    4950 3700
	1    0    0    -1  
$EndComp
Wire Wire Line
	4950 3400 4950 3200
Connection ~ 4950 3200
Wire Wire Line
	4950 3200 5000 3200
$Comp
L Amplifier_Operational:NE5532 U1
U 1 1 5B7F9D4E
P 6500 3300
F 0 "U1" H 6500 3667 50  0000 C CNN
F 1 "NE5532" H 6500 3576 50  0000 C CNN
F 2 "Package_DIP:DIP-8_W7.62mm_LongPads" H 6500 3300 50  0001 C CNN
F 3 "http://www.ti.com/lit/ds/symlink/ne5532.pdf" H 6500 3300 50  0001 C CNN
	1    6500 3300
	1    0    0    -1  
$EndComp
Wire Wire Line
	6200 3400 6150 3400
Wire Wire Line
	6150 3400 6150 3650
Wire Wire Line
	6150 3650 6850 3650
Wire Wire Line
	6850 3650 6850 3300
Wire Wire Line
	6850 3300 6800 3300
Wire Wire Line
	5350 2550 5350 2450
Wire Wire Line
	5350 2450 6850 2450
Wire Wire Line
	6850 2450 6850 3300
Connection ~ 6850 3300
$Comp
L Device:R R11
U 1 1 5B7FB1F8
P 8250 3650
F 0 "R11" H 8320 3696 50  0000 L CNN
F 1 "220k" H 8320 3605 50  0000 L CNN
F 2 "Resistor_THT:R_Axial_DIN0204_L3.6mm_D1.6mm_P7.62mm_Horizontal" V 8180 3650 50  0001 C CNN
F 3 "~" H 8250 3650 50  0001 C CNN
	1    8250 3650
	1    0    0    -1  
$EndComp
Wire Wire Line
	8250 3500 8250 3300
Wire Wire Line
	8250 3300 8600 3300
$Comp
L Device:C C16
U 1 1 5B7FB201
P 7950 3300
F 0 "C16" V 7698 3300 50  0000 C CNN
F 1 "150n" V 7789 3300 50  0000 C CNN
F 2 "Capacitor_THT:C_Rect_L7.0mm_W2.0mm_P5.00mm" H 7988 3150 50  0001 C CNN
F 3 "~" H 7950 3300 50  0001 C CNN
	1    7950 3300
	0    1    1    0   
$EndComp
Wire Wire Line
	8100 3300 8250 3300
Connection ~ 8250 3300
$Comp
L Device:C C14
U 1 1 5B7FB20A
P 7550 3300
F 0 "C14" V 7298 3300 50  0000 C CNN
F 1 "150n" V 7389 3300 50  0000 C CNN
F 2 "Capacitor_THT:C_Rect_L7.0mm_W2.0mm_P5.00mm" H 7588 3150 50  0001 C CNN
F 3 "~" H 7550 3300 50  0001 C CNN
	1    7550 3300
	0    1    1    0   
$EndComp
Wire Wire Line
	7700 3300 7750 3300
$Comp
L Device:R R9
U 1 1 5B7FB212
P 7750 2800
F 0 "R9" H 7820 2846 50  0000 L CNN
F 1 "47k" H 7820 2755 50  0000 L CNN
F 2 "Resistor_THT:R_Axial_DIN0204_L3.6mm_D1.6mm_P7.62mm_Horizontal" V 7680 2800 50  0001 C CNN
F 3 "~" H 7750 2800 50  0001 C CNN
	1    7750 2800
	1    0    0    -1  
$EndComp
$Comp
L power:GND #PWR010
U 1 1 5B7FB219
P 8250 3800
F 0 "#PWR010" H 8250 3550 50  0001 C CNN
F 1 "GND" H 8255 3627 50  0000 C CNN
F 2 "" H 8250 3800 50  0001 C CNN
F 3 "" H 8250 3800 50  0001 C CNN
	1    8250 3800
	1    0    0    -1  
$EndComp
Wire Wire Line
	7750 3300 7750 2950
Connection ~ 7750 3300
Wire Wire Line
	7750 3300 7800 3300
$Comp
L Device:C C12
U 1 1 5B7FB222
P 7150 3300
F 0 "C12" V 6898 3300 50  0000 C CNN
F 1 "150n" V 6989 3300 50  0000 C CNN
F 2 "Capacitor_THT:C_Rect_L7.0mm_W2.0mm_P5.00mm" H 7188 3150 50  0001 C CNN
F 3 "~" H 7150 3300 50  0001 C CNN
	1    7150 3300
	0    1    1    0   
$EndComp
Wire Wire Line
	7300 3300 7350 3300
$Comp
L Device:R R7
U 1 1 5B7FB22A
P 7350 3650
F 0 "R7" H 7420 3696 50  0000 L CNN
F 1 "100k" H 7420 3605 50  0000 L CNN
F 2 "Resistor_THT:R_Axial_DIN0204_L3.6mm_D1.6mm_P7.62mm_Horizontal" V 7280 3650 50  0001 C CNN
F 3 "~" H 7350 3650 50  0001 C CNN
	1    7350 3650
	1    0    0    -1  
$EndComp
$Comp
L power:GND #PWR08
U 1 1 5B7FB231
P 7350 3800
F 0 "#PWR08" H 7350 3550 50  0001 C CNN
F 1 "GND" H 7355 3627 50  0000 C CNN
F 2 "" H 7350 3800 50  0001 C CNN
F 3 "" H 7350 3800 50  0001 C CNN
	1    7350 3800
	1    0    0    -1  
$EndComp
Wire Wire Line
	7350 3500 7350 3300
Connection ~ 7350 3300
Wire Wire Line
	7350 3300 7400 3300
$Comp
L Amplifier_Operational:NE5532 U2
U 1 1 5B7FB23A
P 8900 3400
F 0 "U2" H 8900 3767 50  0000 C CNN
F 1 "NE5532" H 8900 3676 50  0000 C CNN
F 2 "Package_DIP:DIP-8_W7.62mm_LongPads" H 8900 3400 50  0001 C CNN
F 3 "http://www.ti.com/lit/ds/symlink/ne5532.pdf" H 8900 3400 50  0001 C CNN
	1    8900 3400
	1    0    0    -1  
$EndComp
Wire Wire Line
	8600 3500 8550 3500
Wire Wire Line
	8550 3500 8550 3750
Wire Wire Line
	8550 3750 9250 3750
Wire Wire Line
	9250 3750 9250 3400
Wire Wire Line
	9250 3400 9200 3400
Wire Wire Line
	7750 2650 7750 2550
Wire Wire Line
	7750 2550 9250 2550
Wire Wire Line
	9250 2550 9250 3400
Connection ~ 9250 3400
Wire Wire Line
	7000 3300 6850 3300
$Comp
L Device:R R19
U 1 1 5B7FEC1B
P 9550 3400
F 0 "R19" V 9343 3400 50  0000 C CNN
F 1 "100" V 9434 3400 50  0000 C CNN
F 2 "Resistor_THT:R_Axial_DIN0204_L3.6mm_D1.6mm_P7.62mm_Horizontal" V 9480 3400 50  0001 C CNN
F 3 "~" H 9550 3400 50  0001 C CNN
	1    9550 3400
	0    1    1    0   
$EndComp
$Comp
L Device:R R6
U 1 1 5B8018B4
P 5850 5600
F 0 "R6" H 5920 5646 50  0000 L CNN
F 1 "220k" H 5920 5555 50  0000 L CNN
F 2 "Resistor_THT:R_Axial_DIN0204_L3.6mm_D1.6mm_P7.62mm_Horizontal" V 5780 5600 50  0001 C CNN
F 3 "~" H 5850 5600 50  0001 C CNN
	1    5850 5600
	1    0    0    -1  
$EndComp
Wire Wire Line
	5850 5450 5850 5250
Wire Wire Line
	5850 5250 6200 5250
$Comp
L Device:C C9
U 1 1 5B8018BD
P 5550 5250
F 0 "C9" V 5298 5250 50  0000 C CNN
F 1 "150n" V 5389 5250 50  0000 C CNN
F 2 "Capacitor_THT:C_Rect_L7.0mm_W2.0mm_P5.00mm" H 5588 5100 50  0001 C CNN
F 3 "~" H 5550 5250 50  0001 C CNN
	1    5550 5250
	0    1    1    0   
$EndComp
Wire Wire Line
	5700 5250 5850 5250
Connection ~ 5850 5250
$Comp
L Device:C C7
U 1 1 5B8018C6
P 5150 5250
F 0 "C7" V 4898 5250 50  0000 C CNN
F 1 "150n" V 4989 5250 50  0000 C CNN
F 2 "Capacitor_THT:C_Rect_L7.0mm_W2.0mm_P5.00mm" H 5188 5100 50  0001 C CNN
F 3 "~" H 5150 5250 50  0001 C CNN
	1    5150 5250
	0    1    1    0   
$EndComp
Wire Wire Line
	5300 5250 5350 5250
$Comp
L Device:R R4
U 1 1 5B8018CE
P 5350 4750
F 0 "R4" H 5420 4796 50  0000 L CNN
F 1 "47k" H 5420 4705 50  0000 L CNN
F 2 "Resistor_THT:R_Axial_DIN0204_L3.6mm_D1.6mm_P7.62mm_Horizontal" V 5280 4750 50  0001 C CNN
F 3 "~" H 5350 4750 50  0001 C CNN
	1    5350 4750
	1    0    0    -1  
$EndComp
$Comp
L power:GND #PWR07
U 1 1 5B8018D5
P 5850 5750
F 0 "#PWR07" H 5850 5500 50  0001 C CNN
F 1 "GND" H 5855 5577 50  0000 C CNN
F 2 "" H 5850 5750 50  0001 C CNN
F 3 "" H 5850 5750 50  0001 C CNN
	1    5850 5750
	1    0    0    -1  
$EndComp
Wire Wire Line
	5350 5250 5350 4900
Connection ~ 5350 5250
Wire Wire Line
	5350 5250 5400 5250
$Comp
L Device:C C5
U 1 1 5B8018DE
P 4750 5250
F 0 "C5" V 4498 5250 50  0000 C CNN
F 1 "150n" V 4589 5250 50  0000 C CNN
F 2 "Capacitor_THT:C_Rect_L7.0mm_W2.0mm_P5.00mm" H 4788 5100 50  0001 C CNN
F 3 "~" H 4750 5250 50  0001 C CNN
	1    4750 5250
	0    1    1    0   
$EndComp
Wire Wire Line
	4900 5250 4950 5250
$Comp
L Device:R R2
U 1 1 5B8018E6
P 4950 5600
F 0 "R2" H 5020 5646 50  0000 L CNN
F 1 "100k" H 5020 5555 50  0000 L CNN
F 2 "Resistor_THT:R_Axial_DIN0204_L3.6mm_D1.6mm_P7.62mm_Horizontal" V 4880 5600 50  0001 C CNN
F 3 "~" H 4950 5600 50  0001 C CNN
	1    4950 5600
	1    0    0    -1  
$EndComp
$Comp
L power:GND #PWR05
U 1 1 5B8018ED
P 4950 5750
F 0 "#PWR05" H 4950 5500 50  0001 C CNN
F 1 "GND" H 4955 5577 50  0000 C CNN
F 2 "" H 4950 5750 50  0001 C CNN
F 3 "" H 4950 5750 50  0001 C CNN
	1    4950 5750
	1    0    0    -1  
$EndComp
Wire Wire Line
	4950 5450 4950 5250
Connection ~ 4950 5250
Wire Wire Line
	4950 5250 5000 5250
$Comp
L Amplifier_Operational:NE5532 U1
U 2 1 5B8018F6
P 6500 5350
F 0 "U1" H 6500 5717 50  0000 C CNN
F 1 "NE5532" H 6500 5626 50  0000 C CNN
F 2 "Package_DIP:DIP-8_W7.62mm_LongPads" H 6500 5350 50  0001 C CNN
F 3 "http://www.ti.com/lit/ds/symlink/ne5532.pdf" H 6500 5350 50  0001 C CNN
	2    6500 5350
	1    0    0    -1  
$EndComp
Wire Wire Line
	6200 5450 6150 5450
Wire Wire Line
	6150 5450 6150 5700
Wire Wire Line
	6150 5700 6850 5700
Wire Wire Line
	6850 5700 6850 5350
Wire Wire Line
	6850 5350 6800 5350
Wire Wire Line
	5350 4600 5350 4500
Wire Wire Line
	5350 4500 6850 4500
Wire Wire Line
	6850 4500 6850 5350
Connection ~ 6850 5350
$Comp
L Device:R R12
U 1 1 5B801906
P 8250 5700
F 0 "R12" H 8320 5746 50  0000 L CNN
F 1 "220k" H 8320 5655 50  0000 L CNN
F 2 "Resistor_THT:R_Axial_DIN0204_L3.6mm_D1.6mm_P7.62mm_Horizontal" V 8180 5700 50  0001 C CNN
F 3 "~" H 8250 5700 50  0001 C CNN
	1    8250 5700
	1    0    0    -1  
$EndComp
Wire Wire Line
	8250 5550 8250 5350
Wire Wire Line
	8250 5350 8600 5350
$Comp
L Device:C C17
U 1 1 5B80190F
P 7950 5350
F 0 "C17" V 7698 5350 50  0000 C CNN
F 1 "150n" V 7789 5350 50  0000 C CNN
F 2 "Capacitor_THT:C_Rect_L7.0mm_W2.0mm_P5.00mm" H 7988 5200 50  0001 C CNN
F 3 "~" H 7950 5350 50  0001 C CNN
	1    7950 5350
	0    1    1    0   
$EndComp
Wire Wire Line
	8100 5350 8250 5350
Connection ~ 8250 5350
$Comp
L Device:C C15
U 1 1 5B801918
P 7550 5350
F 0 "C15" V 7298 5350 50  0000 C CNN
F 1 "150n" V 7389 5350 50  0000 C CNN
F 2 "Capacitor_THT:C_Rect_L7.0mm_W2.0mm_P5.00mm" H 7588 5200 50  0001 C CNN
F 3 "~" H 7550 5350 50  0001 C CNN
	1    7550 5350
	0    1    1    0   
$EndComp
Wire Wire Line
	7700 5350 7750 5350
$Comp
L Device:R R10
U 1 1 5B801920
P 7750 4850
F 0 "R10" H 7820 4896 50  0000 L CNN
F 1 "47k" H 7820 4805 50  0000 L CNN
F 2 "Resistor_THT:R_Axial_DIN0204_L3.6mm_D1.6mm_P7.62mm_Horizontal" V 7680 4850 50  0001 C CNN
F 3 "~" H 7750 4850 50  0001 C CNN
	1    7750 4850
	1    0    0    -1  
$EndComp
$Comp
L power:GND #PWR011
U 1 1 5B801927
P 8250 5850
F 0 "#PWR011" H 8250 5600 50  0001 C CNN
F 1 "GND" H 8255 5677 50  0000 C CNN
F 2 "" H 8250 5850 50  0001 C CNN
F 3 "" H 8250 5850 50  0001 C CNN
	1    8250 5850
	1    0    0    -1  
$EndComp
Wire Wire Line
	7750 5350 7750 5000
Connection ~ 7750 5350
Wire Wire Line
	7750 5350 7800 5350
$Comp
L Device:C C13
U 1 1 5B801930
P 7150 5350
F 0 "C13" V 6898 5350 50  0000 C CNN
F 1 "150n" V 6989 5350 50  0000 C CNN
F 2 "Capacitor_THT:C_Rect_L7.0mm_W2.0mm_P5.00mm" H 7188 5200 50  0001 C CNN
F 3 "~" H 7150 5350 50  0001 C CNN
	1    7150 5350
	0    1    1    0   
$EndComp
Wire Wire Line
	7300 5350 7350 5350
$Comp
L Device:R R8
U 1 1 5B801938
P 7350 5700
F 0 "R8" H 7420 5746 50  0000 L CNN
F 1 "100k" H 7420 5655 50  0000 L CNN
F 2 "Resistor_THT:R_Axial_DIN0204_L3.6mm_D1.6mm_P7.62mm_Horizontal" V 7280 5700 50  0001 C CNN
F 3 "~" H 7350 5700 50  0001 C CNN
	1    7350 5700
	1    0    0    -1  
$EndComp
$Comp
L power:GND #PWR09
U 1 1 5B80193F
P 7350 5850
F 0 "#PWR09" H 7350 5600 50  0001 C CNN
F 1 "GND" H 7355 5677 50  0000 C CNN
F 2 "" H 7350 5850 50  0001 C CNN
F 3 "" H 7350 5850 50  0001 C CNN
	1    7350 5850
	1    0    0    -1  
$EndComp
Wire Wire Line
	7350 5550 7350 5350
Connection ~ 7350 5350
Wire Wire Line
	7350 5350 7400 5350
$Comp
L Amplifier_Operational:NE5532 U2
U 2 1 5B801948
P 8900 5450
F 0 "U2" H 8900 5817 50  0000 C CNN
F 1 "NE5532" H 8900 5726 50  0000 C CNN
F 2 "Package_DIP:DIP-8_W7.62mm_LongPads" H 8900 5450 50  0001 C CNN
F 3 "http://www.ti.com/lit/ds/symlink/ne5532.pdf" H 8900 5450 50  0001 C CNN
	2    8900 5450
	1    0    0    -1  
$EndComp
Wire Wire Line
	8600 5550 8550 5550
Wire Wire Line
	8550 5550 8550 5800
Wire Wire Line
	8550 5800 9250 5800
Wire Wire Line
	9250 5800 9250 5450
Wire Wire Line
	9250 5450 9200 5450
Wire Wire Line
	7750 4700 7750 4600
Wire Wire Line
	7750 4600 9250 4600
Wire Wire Line
	9250 4600 9250 5450
Connection ~ 9250 5450
Wire Wire Line
	7000 5350 6850 5350
$Comp
L Device:R R20
U 1 1 5B80199D
P 9550 5450
F 0 "R20" V 9343 5450 50  0000 C CNN
F 1 "100" V 9434 5450 50  0000 C CNN
F 2 "Resistor_THT:R_Axial_DIN0204_L3.6mm_D1.6mm_P7.62mm_Horizontal" V 9480 5450 50  0001 C CNN
F 3 "~" H 9550 5450 50  0001 C CNN
	1    9550 5450
	0    1    1    0   
$EndComp
$Comp
L Amplifier_Operational:NE5532 U2
U 3 1 5B80543E
P 5250 8650
F 0 "U2" H 5208 8696 50  0000 L CNN
F 1 "NE5532" H 5208 8605 50  0000 L CNN
F 2 "Package_DIP:DIP-8_W7.62mm_LongPads" H 5250 8650 50  0001 C CNN
F 3 "http://www.ti.com/lit/ds/symlink/ne5532.pdf" H 5250 8650 50  0001 C CNN
	3    5250 8650
	1    0    0    -1  
$EndComp
$Comp
L Connector:Conn_01x02_Male J2
U 1 1 5B806DD5
P 4150 3200
F 0 "J2" H 4256 3378 50  0000 C CNN
F 1 "IN_1" H 4256 3287 50  0000 C CNN
F 2 "Connector_Molex:Molex_KK-254_AE-6410-02A_1x02_P2.54mm_Vertical" H 4150 3200 50  0001 C CNN
F 3 "~" H 4150 3200 50  0001 C CNN
	1    4150 3200
	1    0    0    -1  
$EndComp
Wire Wire Line
	4350 3200 4600 3200
$Comp
L power:GND #PWR02
U 1 1 5B80BC71
P 4500 3400
F 0 "#PWR02" H 4500 3150 50  0001 C CNN
F 1 "GND" H 4505 3227 50  0000 C CNN
F 2 "" H 4500 3400 50  0001 C CNN
F 3 "" H 4500 3400 50  0001 C CNN
	1    4500 3400
	1    0    0    -1  
$EndComp
Wire Wire Line
	4500 3400 4500 3300
Wire Wire Line
	4500 3300 4350 3300
$Comp
L Connector:Conn_01x02_Male J3
U 1 1 5B80E5AB
P 4150 5250
F 0 "J3" H 4256 5428 50  0000 C CNN
F 1 "IN_2" H 4256 5337 50  0000 C CNN
F 2 "Connector_Molex:Molex_KK-254_AE-6410-02A_1x02_P2.54mm_Vertical" H 4150 5250 50  0001 C CNN
F 3 "~" H 4150 5250 50  0001 C CNN
	1    4150 5250
	1    0    0    -1  
$EndComp
Wire Wire Line
	4350 5250 4600 5250
$Comp
L power:GND #PWR03
U 1 1 5B8111B3
P 4500 5500
F 0 "#PWR03" H 4500 5250 50  0001 C CNN
F 1 "GND" H 4505 5327 50  0000 C CNN
F 2 "" H 4500 5500 50  0001 C CNN
F 3 "" H 4500 5500 50  0001 C CNN
	1    4500 5500
	1    0    0    -1  
$EndComp
Wire Wire Line
	4500 5500 4500 5350
Wire Wire Line
	4500 5350 4350 5350
$Comp
L Connector:Conn_01x02_Male J4
U 1 1 5B814877
P 10200 3500
F 0 "J4" H 10172 3380 50  0000 R CNN
F 1 "OUT_1" H 10172 3471 50  0000 R CNN
F 2 "Connector_Molex:Molex_KK-254_AE-6410-02A_1x02_P2.54mm_Vertical" H 10200 3500 50  0001 C CNN
F 3 "~" H 10200 3500 50  0001 C CNN
	1    10200 3500
	-1   0    0    1   
$EndComp
Wire Wire Line
	10000 3400 9700 3400
$Comp
L power:GND #PWR018
U 1 1 5B8177AE
P 9850 3600
F 0 "#PWR018" H 9850 3350 50  0001 C CNN
F 1 "GND" H 9855 3427 50  0000 C CNN
F 2 "" H 9850 3600 50  0001 C CNN
F 3 "" H 9850 3600 50  0001 C CNN
	1    9850 3600
	1    0    0    -1  
$EndComp
Wire Wire Line
	9850 3600 9850 3500
Wire Wire Line
	9850 3500 10000 3500
$Comp
L Connector:Conn_01x02_Male J5
U 1 1 5B81A899
P 10200 5550
F 0 "J5" H 10172 5430 50  0000 R CNN
F 1 "OUT_2" H 10172 5521 50  0000 R CNN
F 2 "Connector_Molex:Molex_KK-254_AE-6410-02A_1x02_P2.54mm_Vertical" H 10200 5550 50  0001 C CNN
F 3 "~" H 10200 5550 50  0001 C CNN
	1    10200 5550
	-1   0    0    1   
$EndComp
$Comp
L power:GND #PWR019
U 1 1 5B81A951
P 9850 5650
F 0 "#PWR019" H 9850 5400 50  0001 C CNN
F 1 "GND" H 9855 5477 50  0000 C CNN
F 2 "" H 9850 5650 50  0001 C CNN
F 3 "" H 9850 5650 50  0001 C CNN
	1    9850 5650
	1    0    0    -1  
$EndComp
Wire Wire Line
	9850 5650 9850 5550
Wire Wire Line
	9850 5550 10000 5550
Wire Wire Line
	10000 5450 9700 5450
$Comp
L Connector:Conn_01x03_Male J1
U 1 1 5B824E5F
P 2900 8650
F 0 "J1" H 3006 8928 50  0000 C CNN
F 1 "SUPPLY" H 3006 8837 50  0000 C CNN
F 2 "Connector_Molex:Molex_KK-254_AE-6410-03A_1x03_P2.54mm_Vertical" H 2900 8650 50  0001 C CNN
F 3 "~" H 2900 8650 50  0001 C CNN
	1    2900 8650
	1    0    0    -1  
$EndComp
$Comp
L Device:CP_Small C1
U 1 1 5B825952
P 3400 8300
F 0 "C1" H 3488 8346 50  0000 L CNN
F 1 "100u" H 3488 8255 50  0000 L CNN
F 2 "Capacitor_THT:CP_Radial_D5.0mm_P2.00mm" H 3400 8300 50  0001 C CNN
F 3 "~" H 3400 8300 50  0001 C CNN
	1    3400 8300
	1    0    0    -1  
$EndComp
$Comp
L Device:CP_Small C2
U 1 1 5B825A5E
P 3400 8950
F 0 "C2" H 3488 8996 50  0000 L CNN
F 1 "100u" H 3488 8905 50  0000 L CNN
F 2 "Capacitor_THT:CP_Radial_D5.0mm_P2.00mm" H 3400 8950 50  0001 C CNN
F 3 "~" H 3400 8950 50  0001 C CNN
	1    3400 8950
	1    0    0    -1  
$EndComp
Wire Wire Line
	3100 8750 3200 8750
Wire Wire Line
	3200 8750 3200 9150
Wire Wire Line
	3200 9150 3400 9150
Wire Wire Line
	4150 9150 4150 8950
Wire Wire Line
	3400 9050 3400 9150
Connection ~ 3400 9150
Wire Wire Line
	3400 9150 4150 9150
Wire Wire Line
	3400 8850 3400 8650
Wire Wire Line
	3100 8650 3400 8650
Connection ~ 3400 8650
Wire Wire Line
	3400 8650 3400 8400
Wire Wire Line
	3100 8550 3200 8550
Wire Wire Line
	3200 8550 3200 8100
Wire Wire Line
	3200 8100 3400 8100
Wire Wire Line
	3400 8100 3400 8200
Wire Wire Line
	3400 8100 4150 8100
Wire Wire Line
	4150 8100 4150 8350
Connection ~ 3400 8100
$Comp
L power:GND #PWR01
U 1 1 5B83C2E8
P 3900 8850
F 0 "#PWR01" H 3900 8600 50  0001 C CNN
F 1 "GND" H 3905 8677 50  0000 C CNN
F 2 "" H 3900 8850 50  0001 C CNN
F 3 "" H 3900 8850 50  0001 C CNN
	1    3900 8850
	1    0    0    -1  
$EndComp
Wire Wire Line
	3900 8850 3900 8650
Wire Wire Line
	3900 8650 3400 8650
$Comp
L Device:C C3
U 1 1 5B84546D
P 4650 8650
F 0 "C3" H 4765 8696 50  0000 L CNN
F 1 "100n" H 4765 8605 50  0000 L CNN
F 2 "Capacitor_THT:C_Disc_D4.3mm_W1.9mm_P5.00mm" H 4688 8500 50  0001 C CNN
F 3 "~" H 4650 8650 50  0001 C CNN
	1    4650 8650
	1    0    0    -1  
$EndComp
Wire Wire Line
	4150 8100 4650 8100
Wire Wire Line
	4650 8100 4650 8500
Connection ~ 4150 8100
Wire Wire Line
	4650 8800 4650 9150
Wire Wire Line
	4650 9150 4150 9150
Connection ~ 4150 9150
$Comp
L Device:C C10
U 1 1 5B8537C0
P 5700 8650
F 0 "C10" H 5815 8696 50  0000 L CNN
F 1 "100n" H 5815 8605 50  0000 L CNN
F 2 "Capacitor_THT:C_Disc_D4.3mm_W1.9mm_P5.00mm" H 5738 8500 50  0001 C CNN
F 3 "~" H 5700 8650 50  0001 C CNN
	1    5700 8650
	1    0    0    -1  
$EndComp
Wire Wire Line
	5700 8500 5700 8100
Wire Wire Line
	5700 8100 5150 8100
Connection ~ 4650 8100
Wire Wire Line
	5150 8350 5150 8100
Connection ~ 5150 8100
Wire Wire Line
	5150 8100 4650 8100
Wire Wire Line
	5150 8950 5150 9150
Wire Wire Line
	5150 9150 4650 9150
Connection ~ 4650 9150
Wire Wire Line
	5150 9150 5700 9150
Wire Wire Line
	5700 9150 5700 8800
Connection ~ 5150 9150
Wire Wire Line
	9400 5450 9250 5450
Wire Wire Line
	9400 3400 9250 3400
$EndSCHEMATC
