%TF.GenerationSoftware,KiCad,Pcbnew,6.0.0-rc1-unknown-7c11d03~84~ubuntu18.04.1*%
%TF.CreationDate,2018-08-29T10:07:08+03:00*%
%TF.ProjectId,Subsonic_Filter,537562736F6E69635F46696C7465722E,rev?*%
%TF.SameCoordinates,Original*%
%TF.FileFunction,Copper,L1,Top,Signal*%
%TF.FilePolarity,Positive*%
%FSLAX46Y46*%
G04 Gerber Fmt 4.6, Leading zero omitted, Abs format (unit mm)*
G04 Created by KiCad (PCBNEW 6.0.0-rc1-unknown-7c11d03~84~ubuntu18.04.1) date Wed Aug 29 10:07:08 2018*
%MOMM*%
%LPD*%
G01*
G04 APERTURE LIST*
%ADD10C,0.500000*%
%ADD11C,1.600000*%
%ADD12R,1.600000X1.600000*%
%ADD13O,2.200000X1.740000*%
%ADD14R,2.200000X1.740000*%
%ADD15R,1.600000X2.400000*%
%ADD16O,1.600000X2.400000*%
%ADD17C,1.400000*%
%ADD18O,1.400000X1.400000*%
%ADD19C,3.800000*%
%ADD20C,1.500000*%
%ADD21C,0.254000*%
G04 APERTURE END LIST*
D10*
X83820000Y-49530000D02*
X137160000Y-49530000D01*
X83820000Y-102870000D02*
X83820000Y-49530000D01*
X137160000Y-102870000D02*
X83820000Y-102870000D01*
X137160000Y-49530000D02*
X137160000Y-102870000D01*
D11*
X123190000Y-78660000D03*
X123190000Y-73660000D03*
X107950000Y-78660000D03*
X107950000Y-73660000D03*
X89535000Y-66580000D03*
D12*
X89535000Y-68580000D03*
X89535000Y-85725000D03*
D11*
X89535000Y-83725000D03*
X102870000Y-61595000D03*
X97870000Y-61595000D03*
X123270000Y-64215000D03*
X123270000Y-69215000D03*
X123190000Y-83265000D03*
X123190000Y-88265000D03*
X113110000Y-61595000D03*
X118110000Y-61595000D03*
X118110000Y-90805000D03*
X113110000Y-90805000D03*
X113110000Y-93345000D03*
X118110000Y-93345000D03*
X107870000Y-64215000D03*
X107870000Y-69215000D03*
X107950000Y-83185000D03*
X107950000Y-88185000D03*
X97870000Y-90805000D03*
X102870000Y-90805000D03*
X97870000Y-59055000D03*
X102870000Y-59055000D03*
X102870000Y-93345000D03*
X97870000Y-93345000D03*
X118110000Y-59055000D03*
X113110000Y-59055000D03*
D13*
X132715000Y-65405000D03*
D14*
X132715000Y-67945000D03*
X89535000Y-93345000D03*
D13*
X89535000Y-90805000D03*
X89535000Y-61595000D03*
D14*
X89535000Y-59055000D03*
X132715000Y-86995000D03*
D13*
X132715000Y-84455000D03*
D14*
X89535000Y-73660000D03*
D13*
X89535000Y-76200000D03*
X89535000Y-78740000D03*
D15*
X96520000Y-80010000D03*
D16*
X104140000Y-72390000D03*
X99060000Y-80010000D03*
X101600000Y-72390000D03*
X101600000Y-80010000D03*
X99060000Y-72390000D03*
X104140000Y-80010000D03*
X96520000Y-72390000D03*
D15*
X111760000Y-80010000D03*
D16*
X119380000Y-72390000D03*
X114300000Y-80010000D03*
X116840000Y-72390000D03*
X116840000Y-80010000D03*
X114300000Y-72390000D03*
X119380000Y-80010000D03*
X111760000Y-72390000D03*
D17*
X126365000Y-62865000D03*
D18*
X126365000Y-70485000D03*
X126365000Y-81280000D03*
D17*
X126365000Y-88900000D03*
D18*
X111760000Y-83185000D03*
D17*
X119380000Y-83185000D03*
X111760000Y-64135000D03*
D18*
X119380000Y-64135000D03*
X119380000Y-88265000D03*
D17*
X111760000Y-88265000D03*
X119380000Y-85725000D03*
D18*
X111760000Y-85725000D03*
X96520000Y-69215000D03*
D17*
X104140000Y-69215000D03*
X104140000Y-83185000D03*
D18*
X96520000Y-83185000D03*
X104140000Y-64135000D03*
D17*
X96520000Y-64135000D03*
X96520000Y-85725000D03*
D18*
X104140000Y-85725000D03*
X104140000Y-66675000D03*
D17*
X96520000Y-66675000D03*
X96520000Y-88265000D03*
D18*
X104140000Y-88265000D03*
X111760000Y-69215000D03*
D17*
X119380000Y-69215000D03*
X119380000Y-66675000D03*
D18*
X111760000Y-66675000D03*
D19*
X132715000Y-53340000D03*
X133350000Y-99060000D03*
X87630000Y-99060000D03*
X87630000Y-53340000D03*
D20*
X95250000Y-57150000D03*
X95250000Y-95885000D03*
D10*
X115650000Y-59055000D02*
X118110000Y-59055000D01*
X113110000Y-61595000D02*
X115650000Y-59055000D01*
X118190000Y-66675000D02*
X119380000Y-66675000D01*
X113110000Y-61595000D02*
X118190000Y-66675000D01*
X119380000Y-69215000D02*
X123270000Y-69215000D01*
X119380000Y-69215000D02*
X119380000Y-72390000D01*
X99060000Y-80010000D02*
X96520000Y-80010000D01*
X94615000Y-80615000D02*
X94615000Y-87630000D01*
X96520000Y-80010000D02*
X95220000Y-80010000D01*
X95220000Y-80010000D02*
X94615000Y-80615000D01*
X94615000Y-87630000D02*
X95250000Y-88265000D01*
X95250000Y-88265000D02*
X96520000Y-88265000D01*
X102870000Y-89535000D02*
X104140000Y-88265000D01*
X102870000Y-90805000D02*
X102870000Y-89535000D01*
X104220000Y-88185000D02*
X104140000Y-88265000D01*
X107950000Y-88185000D02*
X104220000Y-88185000D01*
X97870000Y-59055000D02*
X97870000Y-61595000D01*
X96520000Y-66675000D02*
X95250000Y-66675000D01*
X95250000Y-66675000D02*
X94615000Y-66040000D01*
X94615000Y-66040000D02*
X94615000Y-62230000D01*
X95250000Y-61595000D02*
X97870000Y-61595000D01*
X94615000Y-62230000D02*
X95250000Y-61595000D01*
X97870000Y-93345000D02*
X97870000Y-90805000D01*
X98669999Y-90005001D02*
X98669999Y-86604999D01*
X97870000Y-90805000D02*
X98669999Y-90005001D01*
X97790000Y-85725000D02*
X96520000Y-85725000D01*
X98669999Y-86604999D02*
X97790000Y-85725000D01*
X104220000Y-64215000D02*
X104140000Y-64135000D01*
X107870000Y-64215000D02*
X104220000Y-64215000D01*
X102870000Y-62865000D02*
X104140000Y-64135000D01*
X102870000Y-61595000D02*
X102870000Y-62865000D01*
X99060000Y-72390000D02*
X101600000Y-72390000D01*
X99060000Y-72390000D02*
X99060000Y-64770000D01*
X98425000Y-64135000D02*
X96520000Y-64135000D01*
X99060000Y-64770000D02*
X98425000Y-64135000D01*
X101600000Y-80645000D02*
X104140000Y-83185000D01*
X101600000Y-80010000D02*
X101600000Y-80645000D01*
X104140000Y-83185000D02*
X107950000Y-83185000D01*
X104140000Y-72390000D02*
X104140000Y-69215000D01*
X104140000Y-69215000D02*
X107870000Y-69215000D01*
X115650000Y-93345000D02*
X118110000Y-93345000D01*
X113110000Y-90805000D02*
X115650000Y-93345000D01*
X118190000Y-85725000D02*
X119380000Y-85725000D01*
X113110000Y-90805000D02*
X118190000Y-85725000D01*
X119380000Y-89535000D02*
X118110000Y-90805000D01*
X119380000Y-88265000D02*
X119380000Y-89535000D01*
X119380000Y-88265000D02*
X123190000Y-88265000D01*
X114300000Y-72390000D02*
X114300000Y-65405000D01*
X113030000Y-64135000D02*
X111760000Y-64135000D01*
X114300000Y-65405000D02*
X113030000Y-64135000D01*
X116840000Y-72390000D02*
X114300000Y-72390000D01*
X116840000Y-74090000D02*
X118950000Y-76200000D01*
X116840000Y-72390000D02*
X116840000Y-74090000D01*
X118950000Y-76200000D02*
X125095000Y-76200000D01*
X126365000Y-74930000D02*
X126365000Y-70485000D01*
X125095000Y-76200000D02*
X126365000Y-74930000D01*
X118110000Y-62865000D02*
X119380000Y-64135000D01*
X118110000Y-61595000D02*
X118110000Y-62865000D01*
X123190000Y-64135000D02*
X123270000Y-64215000D01*
X119380000Y-64135000D02*
X123190000Y-64135000D01*
X116840000Y-80645000D02*
X119380000Y-83185000D01*
X116840000Y-80010000D02*
X116840000Y-80645000D01*
X119460000Y-83265000D02*
X119380000Y-83185000D01*
X123190000Y-83265000D02*
X119460000Y-83265000D01*
X130810000Y-84455000D02*
X126365000Y-88900000D01*
X132715000Y-84455000D02*
X130810000Y-84455000D01*
X128905000Y-65405000D02*
X132715000Y-65405000D01*
X126365000Y-62865000D02*
X128905000Y-65405000D01*
X100965000Y-57150000D02*
X102870000Y-59055000D01*
X95250000Y-57150000D02*
X100965000Y-57150000D01*
X100330000Y-95885000D02*
X102870000Y-93345000D01*
X95250000Y-95885000D02*
X100330000Y-95885000D01*
X114300000Y-80010000D02*
X111760000Y-80010000D01*
X111760000Y-88265000D02*
X109855000Y-86360000D01*
X111760000Y-80410000D02*
X111760000Y-80010000D01*
X109855000Y-82315000D02*
X111760000Y-80410000D01*
X109855000Y-86360000D02*
X109855000Y-82315000D01*
X115550010Y-78359990D02*
X120269990Y-78359990D01*
X114300000Y-80010000D02*
X114300000Y-79610000D01*
X114300000Y-79610000D02*
X115550010Y-78359990D01*
X123190000Y-81280000D02*
X126365000Y-81280000D01*
X120269990Y-78359990D02*
X123190000Y-81280000D01*
D21*
G36*
X137033000Y-102743000D02*
X83947000Y-102743000D01*
X83947000Y-98555757D01*
X85095000Y-98555757D01*
X85095000Y-99564243D01*
X85480930Y-100495962D01*
X86194038Y-101209070D01*
X87125757Y-101595000D01*
X88134243Y-101595000D01*
X89065962Y-101209070D01*
X89779070Y-100495962D01*
X90165000Y-99564243D01*
X90165000Y-98555757D01*
X130815000Y-98555757D01*
X130815000Y-99564243D01*
X131200930Y-100495962D01*
X131914038Y-101209070D01*
X132845757Y-101595000D01*
X133854243Y-101595000D01*
X134785962Y-101209070D01*
X135499070Y-100495962D01*
X135885000Y-99564243D01*
X135885000Y-98555757D01*
X135499070Y-97624038D01*
X134785962Y-96910930D01*
X133854243Y-96525000D01*
X132845757Y-96525000D01*
X131914038Y-96910930D01*
X131200930Y-97624038D01*
X130815000Y-98555757D01*
X90165000Y-98555757D01*
X89779070Y-97624038D01*
X89065962Y-96910930D01*
X88134243Y-96525000D01*
X87125757Y-96525000D01*
X86194038Y-96910930D01*
X85480930Y-97624038D01*
X85095000Y-98555757D01*
X83947000Y-98555757D01*
X83947000Y-95609506D01*
X93865000Y-95609506D01*
X93865000Y-96160494D01*
X94075853Y-96669540D01*
X94465460Y-97059147D01*
X94974506Y-97270000D01*
X95525494Y-97270000D01*
X96034540Y-97059147D01*
X96323687Y-96770000D01*
X100242839Y-96770000D01*
X100330000Y-96787337D01*
X100417161Y-96770000D01*
X100417165Y-96770000D01*
X100675310Y-96718652D01*
X100968049Y-96523049D01*
X101017425Y-96449153D01*
X102686579Y-94780000D01*
X103155439Y-94780000D01*
X103682862Y-94561534D01*
X104086534Y-94157862D01*
X104305000Y-93630439D01*
X104305000Y-93059561D01*
X104086534Y-92532138D01*
X103682862Y-92128466D01*
X103553784Y-92075000D01*
X103682862Y-92021534D01*
X104086534Y-91617862D01*
X104305000Y-91090439D01*
X104305000Y-90519561D01*
X104086534Y-89992138D01*
X103875487Y-89781091D01*
X104056578Y-89600000D01*
X104271485Y-89600000D01*
X104660891Y-89522542D01*
X105102481Y-89227481D01*
X105207706Y-89070000D01*
X106805604Y-89070000D01*
X107137138Y-89401534D01*
X107664561Y-89620000D01*
X108235439Y-89620000D01*
X108762862Y-89401534D01*
X109166534Y-88997862D01*
X109385000Y-88470439D01*
X109385000Y-87899561D01*
X109166534Y-87372138D01*
X108762862Y-86968466D01*
X108235439Y-86750000D01*
X107664561Y-86750000D01*
X107137138Y-86968466D01*
X106805604Y-87300000D01*
X105098711Y-87300000D01*
X104660891Y-87007458D01*
X104543259Y-86984060D01*
X104942663Y-86791764D01*
X105289797Y-86403396D01*
X105432716Y-86058329D01*
X105309374Y-85852000D01*
X104267000Y-85852000D01*
X104267000Y-85872000D01*
X104013000Y-85872000D01*
X104013000Y-85852000D01*
X102970626Y-85852000D01*
X102847284Y-86058329D01*
X102990203Y-86403396D01*
X103337337Y-86791764D01*
X103736741Y-86984060D01*
X103619109Y-87007458D01*
X103177519Y-87302519D01*
X102882458Y-87744109D01*
X102778846Y-88265000D01*
X102797026Y-88356396D01*
X102305845Y-88847577D01*
X102231952Y-88896951D01*
X102182578Y-88970844D01*
X102182576Y-88970846D01*
X102036348Y-89189691D01*
X101967663Y-89535000D01*
X101985001Y-89622165D01*
X101985001Y-89660603D01*
X101653466Y-89992138D01*
X101435000Y-90519561D01*
X101435000Y-91090439D01*
X101653466Y-91617862D01*
X102057138Y-92021534D01*
X102186216Y-92075000D01*
X102057138Y-92128466D01*
X101653466Y-92532138D01*
X101435000Y-93059561D01*
X101435000Y-93528421D01*
X99963422Y-95000000D01*
X96323687Y-95000000D01*
X96034540Y-94710853D01*
X95525494Y-94500000D01*
X94974506Y-94500000D01*
X94465460Y-94710853D01*
X94075853Y-95100460D01*
X93865000Y-95609506D01*
X83947000Y-95609506D01*
X83947000Y-92475000D01*
X87787560Y-92475000D01*
X87787560Y-94215000D01*
X87836843Y-94462765D01*
X87977191Y-94672809D01*
X88187235Y-94813157D01*
X88435000Y-94862440D01*
X90635000Y-94862440D01*
X90882765Y-94813157D01*
X91092809Y-94672809D01*
X91233157Y-94462765D01*
X91282440Y-94215000D01*
X91282440Y-92475000D01*
X91233157Y-92227235D01*
X91092809Y-92017191D01*
X90882765Y-91876843D01*
X90816140Y-91863591D01*
X90925533Y-91775491D01*
X91208584Y-91257500D01*
X91226302Y-91165031D01*
X91105246Y-90932000D01*
X89662000Y-90932000D01*
X89662000Y-90952000D01*
X89408000Y-90952000D01*
X89408000Y-90932000D01*
X87964754Y-90932000D01*
X87843698Y-91165031D01*
X87861416Y-91257500D01*
X88144467Y-91775491D01*
X88253860Y-91863591D01*
X88187235Y-91876843D01*
X87977191Y-92017191D01*
X87836843Y-92227235D01*
X87787560Y-92475000D01*
X83947000Y-92475000D01*
X83947000Y-90444969D01*
X87843698Y-90444969D01*
X87964754Y-90678000D01*
X89408000Y-90678000D01*
X89408000Y-89454418D01*
X89662000Y-89454418D01*
X89662000Y-90678000D01*
X91105246Y-90678000D01*
X91226302Y-90444969D01*
X91208584Y-90352500D01*
X90925533Y-89834509D01*
X90465802Y-89464266D01*
X89899380Y-89298138D01*
X89662000Y-89454418D01*
X89408000Y-89454418D01*
X89170620Y-89298138D01*
X88604198Y-89464266D01*
X88144467Y-89834509D01*
X87861416Y-90352500D01*
X87843698Y-90444969D01*
X83947000Y-90444969D01*
X83947000Y-86010750D01*
X88100000Y-86010750D01*
X88100000Y-86651309D01*
X88196673Y-86884698D01*
X88375301Y-87063327D01*
X88608690Y-87160000D01*
X89249250Y-87160000D01*
X89408000Y-87001250D01*
X89408000Y-85852000D01*
X89662000Y-85852000D01*
X89662000Y-87001250D01*
X89820750Y-87160000D01*
X90461310Y-87160000D01*
X90694699Y-87063327D01*
X90873327Y-86884698D01*
X90970000Y-86651309D01*
X90970000Y-86010750D01*
X90811250Y-85852000D01*
X89662000Y-85852000D01*
X89408000Y-85852000D01*
X88258750Y-85852000D01*
X88100000Y-86010750D01*
X83947000Y-86010750D01*
X83947000Y-83439561D01*
X88100000Y-83439561D01*
X88100000Y-84010439D01*
X88290830Y-84471144D01*
X88196673Y-84565302D01*
X88100000Y-84798691D01*
X88100000Y-85439250D01*
X88258750Y-85598000D01*
X89408000Y-85598000D01*
X89408000Y-85578000D01*
X89662000Y-85578000D01*
X89662000Y-85598000D01*
X90811250Y-85598000D01*
X90970000Y-85439250D01*
X90970000Y-84798691D01*
X90873327Y-84565302D01*
X90779170Y-84471144D01*
X90970000Y-84010439D01*
X90970000Y-83439561D01*
X90751534Y-82912138D01*
X90347862Y-82508466D01*
X89820439Y-82290000D01*
X89249561Y-82290000D01*
X88722138Y-82508466D01*
X88318466Y-82912138D01*
X88100000Y-83439561D01*
X83947000Y-83439561D01*
X83947000Y-80615000D01*
X93712663Y-80615000D01*
X93730000Y-80702161D01*
X93730001Y-87542835D01*
X93712663Y-87630000D01*
X93781348Y-87975309D01*
X93927576Y-88194154D01*
X93927578Y-88194156D01*
X93976952Y-88268049D01*
X94050844Y-88317423D01*
X94562576Y-88829155D01*
X94611951Y-88903049D01*
X94685844Y-88952423D01*
X94685845Y-88952424D01*
X94753848Y-88997862D01*
X94904690Y-89098652D01*
X95162835Y-89150000D01*
X95162839Y-89150000D01*
X95250000Y-89167337D01*
X95337161Y-89150000D01*
X95517025Y-89150000D01*
X95763783Y-89396758D01*
X96254452Y-89600000D01*
X96785548Y-89600000D01*
X97276217Y-89396758D01*
X97651758Y-89021217D01*
X97784999Y-88699544D01*
X97784999Y-89370000D01*
X97584561Y-89370000D01*
X97057138Y-89588466D01*
X96653466Y-89992138D01*
X96435000Y-90519561D01*
X96435000Y-91090439D01*
X96653466Y-91617862D01*
X96985001Y-91949397D01*
X96985000Y-92200604D01*
X96653466Y-92532138D01*
X96435000Y-93059561D01*
X96435000Y-93630439D01*
X96653466Y-94157862D01*
X97057138Y-94561534D01*
X97584561Y-94780000D01*
X98155439Y-94780000D01*
X98682862Y-94561534D01*
X99086534Y-94157862D01*
X99305000Y-93630439D01*
X99305000Y-93059561D01*
X99086534Y-92532138D01*
X98755000Y-92200604D01*
X98755000Y-91949396D01*
X99086534Y-91617862D01*
X99305000Y-91090439D01*
X99305000Y-90645087D01*
X99308048Y-90643050D01*
X99503651Y-90350311D01*
X99554999Y-90092166D01*
X99554999Y-90092162D01*
X99572336Y-90005002D01*
X99554999Y-89917842D01*
X99554999Y-86692160D01*
X99572336Y-86604999D01*
X99554999Y-86517838D01*
X99554999Y-86517834D01*
X99503651Y-86259689D01*
X99357423Y-86040844D01*
X99357422Y-86040843D01*
X99308048Y-85966950D01*
X99234155Y-85917576D01*
X98477425Y-85160847D01*
X98428049Y-85086951D01*
X98135310Y-84891348D01*
X97877165Y-84840000D01*
X97877161Y-84840000D01*
X97790000Y-84822663D01*
X97702839Y-84840000D01*
X97522975Y-84840000D01*
X97276217Y-84593242D01*
X96919930Y-84445663D01*
X97322663Y-84251764D01*
X97669797Y-83863396D01*
X97812716Y-83518329D01*
X97689374Y-83312000D01*
X96647000Y-83312000D01*
X96647000Y-83332000D01*
X96393000Y-83332000D01*
X96393000Y-83312000D01*
X96373000Y-83312000D01*
X96373000Y-83058000D01*
X96393000Y-83058000D01*
X96393000Y-83038000D01*
X96647000Y-83038000D01*
X96647000Y-83058000D01*
X97689374Y-83058000D01*
X97812716Y-82851671D01*
X97669797Y-82506604D01*
X97322663Y-82118236D01*
X96853331Y-81892273D01*
X96647002Y-82014793D01*
X96647002Y-81857440D01*
X97320000Y-81857440D01*
X97567765Y-81808157D01*
X97777809Y-81667809D01*
X97918157Y-81457765D01*
X97944785Y-81323893D01*
X98025424Y-81444577D01*
X98500092Y-81761740D01*
X99060000Y-81873113D01*
X99619909Y-81761740D01*
X100094577Y-81444577D01*
X100330000Y-81092241D01*
X100565424Y-81444577D01*
X101040092Y-81761740D01*
X101570708Y-81867286D01*
X102805000Y-83101579D01*
X102805000Y-83450548D01*
X103008242Y-83941217D01*
X103383783Y-84316758D01*
X103740070Y-84464337D01*
X103337337Y-84658236D01*
X102990203Y-85046604D01*
X102847284Y-85391671D01*
X102970626Y-85598000D01*
X104013000Y-85598000D01*
X104013000Y-85578000D01*
X104267000Y-85578000D01*
X104267000Y-85598000D01*
X105309374Y-85598000D01*
X105432716Y-85391671D01*
X105289797Y-85046604D01*
X104942663Y-84658236D01*
X104539930Y-84464337D01*
X104896217Y-84316758D01*
X105142975Y-84070000D01*
X106805604Y-84070000D01*
X107137138Y-84401534D01*
X107664561Y-84620000D01*
X108235439Y-84620000D01*
X108762862Y-84401534D01*
X108970001Y-84194395D01*
X108970000Y-86272839D01*
X108952663Y-86360000D01*
X108970000Y-86447161D01*
X108970000Y-86447164D01*
X109021348Y-86705309D01*
X109216951Y-86998049D01*
X109290847Y-87047425D01*
X110425000Y-88181579D01*
X110425000Y-88530548D01*
X110628242Y-89021217D01*
X111003783Y-89396758D01*
X111494452Y-89600000D01*
X112025548Y-89600000D01*
X112516217Y-89396758D01*
X112891758Y-89021217D01*
X113095000Y-88530548D01*
X113095000Y-87999452D01*
X112891758Y-87508783D01*
X112516217Y-87133242D01*
X112159930Y-86985663D01*
X112562663Y-86791764D01*
X112909797Y-86403396D01*
X113052716Y-86058329D01*
X112929374Y-85852000D01*
X111887000Y-85852000D01*
X111887000Y-85872000D01*
X111633000Y-85872000D01*
X111633000Y-85852000D01*
X111613000Y-85852000D01*
X111613000Y-85598000D01*
X111633000Y-85598000D01*
X111633000Y-84554794D01*
X111464942Y-84455000D01*
X111633000Y-84355206D01*
X111633000Y-83312000D01*
X111887000Y-83312000D01*
X111887000Y-84355206D01*
X112055058Y-84455000D01*
X111887000Y-84554794D01*
X111887000Y-85598000D01*
X112929374Y-85598000D01*
X113052716Y-85391671D01*
X112909797Y-85046604D01*
X112562663Y-84658236D01*
X112140536Y-84455000D01*
X112562663Y-84251764D01*
X112909797Y-83863396D01*
X113052716Y-83518329D01*
X112929374Y-83312000D01*
X111887000Y-83312000D01*
X111633000Y-83312000D01*
X111613000Y-83312000D01*
X111613000Y-83058000D01*
X111633000Y-83058000D01*
X111633000Y-83038000D01*
X111887000Y-83038000D01*
X111887000Y-83058000D01*
X112929374Y-83058000D01*
X113052716Y-82851671D01*
X112909797Y-82506604D01*
X112562663Y-82118236D01*
X112093331Y-81892273D01*
X111887002Y-82014793D01*
X111887002Y-81857440D01*
X112560000Y-81857440D01*
X112807765Y-81808157D01*
X113017809Y-81667809D01*
X113158157Y-81457765D01*
X113184785Y-81323893D01*
X113265424Y-81444577D01*
X113740092Y-81761740D01*
X114300000Y-81873113D01*
X114859909Y-81761740D01*
X115334577Y-81444577D01*
X115570000Y-81092241D01*
X115805424Y-81444577D01*
X116280092Y-81761740D01*
X116810708Y-81867286D01*
X118045000Y-83101579D01*
X118045000Y-83450548D01*
X118248242Y-83941217D01*
X118623783Y-84316758D01*
X118957528Y-84455000D01*
X118623783Y-84593242D01*
X118377025Y-84840000D01*
X118277161Y-84840000D01*
X118190000Y-84822663D01*
X118102839Y-84840000D01*
X118102835Y-84840000D01*
X117844690Y-84891348D01*
X117625845Y-85037576D01*
X117625844Y-85037577D01*
X117551951Y-85086951D01*
X117502577Y-85160844D01*
X113293422Y-89370000D01*
X112824561Y-89370000D01*
X112297138Y-89588466D01*
X111893466Y-89992138D01*
X111675000Y-90519561D01*
X111675000Y-91090439D01*
X111893466Y-91617862D01*
X112297138Y-92021534D01*
X112426216Y-92075000D01*
X112297138Y-92128466D01*
X111893466Y-92532138D01*
X111675000Y-93059561D01*
X111675000Y-93630439D01*
X111893466Y-94157862D01*
X112297138Y-94561534D01*
X112824561Y-94780000D01*
X113395439Y-94780000D01*
X113922862Y-94561534D01*
X114326534Y-94157862D01*
X114545000Y-93630439D01*
X114545000Y-93491579D01*
X114962576Y-93909155D01*
X115011951Y-93983049D01*
X115085844Y-94032423D01*
X115085845Y-94032424D01*
X115196880Y-94106615D01*
X115304690Y-94178652D01*
X115562835Y-94230000D01*
X115562839Y-94230000D01*
X115649999Y-94247337D01*
X115737159Y-94230000D01*
X116965604Y-94230000D01*
X117297138Y-94561534D01*
X117824561Y-94780000D01*
X118395439Y-94780000D01*
X118922862Y-94561534D01*
X119326534Y-94157862D01*
X119545000Y-93630439D01*
X119545000Y-93059561D01*
X119326534Y-92532138D01*
X118922862Y-92128466D01*
X118793784Y-92075000D01*
X118922862Y-92021534D01*
X119326534Y-91617862D01*
X119545000Y-91090439D01*
X119545000Y-90621579D01*
X119944156Y-90222423D01*
X120018049Y-90173049D01*
X120072095Y-90092165D01*
X120213651Y-89880311D01*
X120213652Y-89880310D01*
X120265000Y-89622165D01*
X120265000Y-89622161D01*
X120282337Y-89535001D01*
X120265000Y-89447841D01*
X120265000Y-89279252D01*
X120342481Y-89227481D01*
X120394252Y-89150000D01*
X122045604Y-89150000D01*
X122377138Y-89481534D01*
X122904561Y-89700000D01*
X123475439Y-89700000D01*
X124002862Y-89481534D01*
X124406534Y-89077862D01*
X124590200Y-88634452D01*
X125030000Y-88634452D01*
X125030000Y-89165548D01*
X125233242Y-89656217D01*
X125608783Y-90031758D01*
X126099452Y-90235000D01*
X126630548Y-90235000D01*
X127121217Y-90031758D01*
X127496758Y-89656217D01*
X127700000Y-89165548D01*
X127700000Y-88816578D01*
X129235828Y-87280750D01*
X130980000Y-87280750D01*
X130980000Y-87991309D01*
X131076673Y-88224698D01*
X131255301Y-88403327D01*
X131488690Y-88500000D01*
X132429250Y-88500000D01*
X132588000Y-88341250D01*
X132588000Y-87122000D01*
X132842000Y-87122000D01*
X132842000Y-88341250D01*
X133000750Y-88500000D01*
X133941310Y-88500000D01*
X134174699Y-88403327D01*
X134353327Y-88224698D01*
X134450000Y-87991309D01*
X134450000Y-87280750D01*
X134291250Y-87122000D01*
X132842000Y-87122000D01*
X132588000Y-87122000D01*
X131138750Y-87122000D01*
X130980000Y-87280750D01*
X129235828Y-87280750D01*
X131176579Y-85340000D01*
X131266291Y-85340000D01*
X131393001Y-85529636D01*
X131255301Y-85586673D01*
X131076673Y-85765302D01*
X130980000Y-85998691D01*
X130980000Y-86709250D01*
X131138750Y-86868000D01*
X132588000Y-86868000D01*
X132588000Y-86848000D01*
X132842000Y-86848000D01*
X132842000Y-86868000D01*
X134291250Y-86868000D01*
X134450000Y-86709250D01*
X134450000Y-85998691D01*
X134353327Y-85765302D01*
X134174699Y-85586673D01*
X134036999Y-85529636D01*
X134362678Y-85042222D01*
X134479484Y-84455000D01*
X134362678Y-83867778D01*
X134030044Y-83369956D01*
X133532222Y-83037322D01*
X133093226Y-82950000D01*
X132336774Y-82950000D01*
X131897778Y-83037322D01*
X131399956Y-83369956D01*
X131266291Y-83570000D01*
X130897159Y-83570000D01*
X130809999Y-83552663D01*
X130722839Y-83570000D01*
X130722835Y-83570000D01*
X130464690Y-83621348D01*
X130464688Y-83621349D01*
X130464689Y-83621349D01*
X130245845Y-83767576D01*
X130245844Y-83767577D01*
X130171951Y-83816951D01*
X130122577Y-83890844D01*
X126448422Y-87565000D01*
X126099452Y-87565000D01*
X125608783Y-87768242D01*
X125233242Y-88143783D01*
X125030000Y-88634452D01*
X124590200Y-88634452D01*
X124625000Y-88550439D01*
X124625000Y-87979561D01*
X124406534Y-87452138D01*
X124002862Y-87048466D01*
X123475439Y-86830000D01*
X122904561Y-86830000D01*
X122377138Y-87048466D01*
X122045604Y-87380000D01*
X120394252Y-87380000D01*
X120342481Y-87302519D01*
X119900891Y-87007458D01*
X119814082Y-86990191D01*
X120136217Y-86856758D01*
X120511758Y-86481217D01*
X120715000Y-85990548D01*
X120715000Y-85459452D01*
X120511758Y-84968783D01*
X120136217Y-84593242D01*
X119802472Y-84455000D01*
X120136217Y-84316758D01*
X120302975Y-84150000D01*
X122045604Y-84150000D01*
X122377138Y-84481534D01*
X122904561Y-84700000D01*
X123475439Y-84700000D01*
X124002862Y-84481534D01*
X124406534Y-84077862D01*
X124625000Y-83550439D01*
X124625000Y-82979561D01*
X124406534Y-82452138D01*
X124119396Y-82165000D01*
X125350748Y-82165000D01*
X125402519Y-82242481D01*
X125844109Y-82537542D01*
X126233515Y-82615000D01*
X126496485Y-82615000D01*
X126885891Y-82537542D01*
X127327481Y-82242481D01*
X127622542Y-81800891D01*
X127726154Y-81280000D01*
X127622542Y-80759109D01*
X127327481Y-80317519D01*
X126885891Y-80022458D01*
X126496485Y-79945000D01*
X126233515Y-79945000D01*
X125844109Y-80022458D01*
X125402519Y-80317519D01*
X125350748Y-80395000D01*
X123556579Y-80395000D01*
X123256579Y-80095000D01*
X123475439Y-80095000D01*
X124002862Y-79876534D01*
X124406534Y-79472862D01*
X124625000Y-78945439D01*
X124625000Y-78374561D01*
X124406534Y-77847138D01*
X124002862Y-77443466D01*
X123475439Y-77225000D01*
X122904561Y-77225000D01*
X122377138Y-77443466D01*
X121973466Y-77847138D01*
X121755000Y-78374561D01*
X121755000Y-78593422D01*
X120957415Y-77795837D01*
X120908039Y-77721941D01*
X120615300Y-77526338D01*
X120357155Y-77474990D01*
X120357151Y-77474990D01*
X120269990Y-77457653D01*
X120182829Y-77474990D01*
X115637169Y-77474990D01*
X115550009Y-77457653D01*
X115462849Y-77474990D01*
X115462845Y-77474990D01*
X115204700Y-77526338D01*
X115096890Y-77598375D01*
X114985855Y-77672566D01*
X114985854Y-77672567D01*
X114911961Y-77721941D01*
X114862587Y-77795834D01*
X114476438Y-78181983D01*
X114300000Y-78146887D01*
X113740091Y-78258260D01*
X113265423Y-78575424D01*
X113184785Y-78696107D01*
X113158157Y-78562235D01*
X113017809Y-78352191D01*
X112807765Y-78211843D01*
X112560000Y-78162560D01*
X110960000Y-78162560D01*
X110712235Y-78211843D01*
X110502191Y-78352191D01*
X110361843Y-78562235D01*
X110312560Y-78810000D01*
X110312560Y-80605861D01*
X109290845Y-81627577D01*
X109216952Y-81676951D01*
X109167578Y-81750844D01*
X109167576Y-81750846D01*
X109021348Y-81969691D01*
X108978666Y-82184270D01*
X108762862Y-81968466D01*
X108235439Y-81750000D01*
X107664561Y-81750000D01*
X107137138Y-81968466D01*
X106805604Y-82300000D01*
X105142975Y-82300000D01*
X104896217Y-82053242D01*
X104405548Y-81850000D01*
X104256197Y-81850000D01*
X104699909Y-81761740D01*
X105174577Y-81444577D01*
X105491740Y-80969909D01*
X105575000Y-80551332D01*
X105575000Y-79468667D01*
X105491740Y-79050091D01*
X105174576Y-78575423D01*
X104873965Y-78374561D01*
X106515000Y-78374561D01*
X106515000Y-78945439D01*
X106733466Y-79472862D01*
X107137138Y-79876534D01*
X107664561Y-80095000D01*
X108235439Y-80095000D01*
X108762862Y-79876534D01*
X109166534Y-79472862D01*
X109385000Y-78945439D01*
X109385000Y-78374561D01*
X109166534Y-77847138D01*
X108762862Y-77443466D01*
X108235439Y-77225000D01*
X107664561Y-77225000D01*
X107137138Y-77443466D01*
X106733466Y-77847138D01*
X106515000Y-78374561D01*
X104873965Y-78374561D01*
X104699908Y-78258260D01*
X104140000Y-78146887D01*
X103580091Y-78258260D01*
X103105423Y-78575424D01*
X102870000Y-78927759D01*
X102634576Y-78575423D01*
X102159908Y-78258260D01*
X101600000Y-78146887D01*
X101040091Y-78258260D01*
X100565423Y-78575424D01*
X100330000Y-78927759D01*
X100094576Y-78575423D01*
X99619908Y-78258260D01*
X99060000Y-78146887D01*
X98500091Y-78258260D01*
X98025423Y-78575424D01*
X97944785Y-78696107D01*
X97918157Y-78562235D01*
X97777809Y-78352191D01*
X97567765Y-78211843D01*
X97320000Y-78162560D01*
X95720000Y-78162560D01*
X95472235Y-78211843D01*
X95262191Y-78352191D01*
X95121843Y-78562235D01*
X95072560Y-78810000D01*
X95072560Y-79136989D01*
X94874690Y-79176348D01*
X94874688Y-79176349D01*
X94874689Y-79176349D01*
X94655845Y-79322576D01*
X94655844Y-79322577D01*
X94581951Y-79371951D01*
X94532577Y-79445844D01*
X94050846Y-79927575D01*
X93976951Y-79976951D01*
X93781348Y-80269691D01*
X93730000Y-80527836D01*
X93730000Y-80527839D01*
X93712663Y-80615000D01*
X83947000Y-80615000D01*
X83947000Y-78740000D01*
X87770516Y-78740000D01*
X87887322Y-79327222D01*
X88219956Y-79825044D01*
X88717778Y-80157678D01*
X89156774Y-80245000D01*
X89913226Y-80245000D01*
X90352222Y-80157678D01*
X90850044Y-79825044D01*
X91182678Y-79327222D01*
X91299484Y-78740000D01*
X91182678Y-78152778D01*
X90850044Y-77654956D01*
X90562523Y-77462840D01*
X90925533Y-77170491D01*
X91208584Y-76652500D01*
X91226302Y-76560031D01*
X91105246Y-76327000D01*
X89662000Y-76327000D01*
X89662000Y-76347000D01*
X89408000Y-76347000D01*
X89408000Y-76327000D01*
X87964754Y-76327000D01*
X87843698Y-76560031D01*
X87861416Y-76652500D01*
X88144467Y-77170491D01*
X88507477Y-77462840D01*
X88219956Y-77654956D01*
X87887322Y-78152778D01*
X87770516Y-78740000D01*
X83947000Y-78740000D01*
X83947000Y-72790000D01*
X87787560Y-72790000D01*
X87787560Y-74530000D01*
X87836843Y-74777765D01*
X87977191Y-74987809D01*
X88187235Y-75128157D01*
X88253860Y-75141409D01*
X88144467Y-75229509D01*
X87861416Y-75747500D01*
X87843698Y-75839969D01*
X87964754Y-76073000D01*
X89408000Y-76073000D01*
X89408000Y-76053000D01*
X89662000Y-76053000D01*
X89662000Y-76073000D01*
X91105246Y-76073000D01*
X91226302Y-75839969D01*
X91208584Y-75747500D01*
X90925533Y-75229509D01*
X90816140Y-75141409D01*
X90882765Y-75128157D01*
X91092809Y-74987809D01*
X91233157Y-74777765D01*
X91282440Y-74530000D01*
X91282440Y-72790000D01*
X91233157Y-72542235D01*
X91092809Y-72332191D01*
X90882765Y-72191843D01*
X90635000Y-72142560D01*
X88435000Y-72142560D01*
X88187235Y-72191843D01*
X87977191Y-72332191D01*
X87836843Y-72542235D01*
X87787560Y-72790000D01*
X83947000Y-72790000D01*
X83947000Y-67780000D01*
X88087560Y-67780000D01*
X88087560Y-69380000D01*
X88136843Y-69627765D01*
X88277191Y-69837809D01*
X88487235Y-69978157D01*
X88735000Y-70027440D01*
X90335000Y-70027440D01*
X90582765Y-69978157D01*
X90792809Y-69837809D01*
X90933157Y-69627765D01*
X90982440Y-69380000D01*
X90982440Y-67780000D01*
X90933157Y-67532235D01*
X90793005Y-67322484D01*
X90981965Y-66796777D01*
X90954778Y-66226546D01*
X90788864Y-65825995D01*
X90542745Y-65751861D01*
X89714605Y-66580000D01*
X89728748Y-66594142D01*
X89549143Y-66773748D01*
X89535000Y-66759605D01*
X89520858Y-66773748D01*
X89341252Y-66594142D01*
X89355395Y-66580000D01*
X88527255Y-65751861D01*
X88281136Y-65825995D01*
X88088035Y-66363223D01*
X88115222Y-66933454D01*
X88276605Y-67323067D01*
X88136843Y-67532235D01*
X88087560Y-67780000D01*
X83947000Y-67780000D01*
X83947000Y-65572255D01*
X88706861Y-65572255D01*
X89535000Y-66400395D01*
X90363139Y-65572255D01*
X90289005Y-65326136D01*
X89751777Y-65133035D01*
X89181546Y-65160222D01*
X88780995Y-65326136D01*
X88706861Y-65572255D01*
X83947000Y-65572255D01*
X83947000Y-61955031D01*
X87843698Y-61955031D01*
X87861416Y-62047500D01*
X88144467Y-62565491D01*
X88604198Y-62935734D01*
X89170620Y-63101862D01*
X89408000Y-62945582D01*
X89408000Y-61722000D01*
X89662000Y-61722000D01*
X89662000Y-62945582D01*
X89899380Y-63101862D01*
X90465802Y-62935734D01*
X90925533Y-62565491D01*
X91108858Y-62230000D01*
X93712663Y-62230000D01*
X93730001Y-62317165D01*
X93730000Y-65952839D01*
X93712663Y-66040000D01*
X93730000Y-66127161D01*
X93730000Y-66127164D01*
X93781348Y-66385309D01*
X93976951Y-66678049D01*
X94050846Y-66727425D01*
X94562577Y-67239156D01*
X94611951Y-67313049D01*
X94685844Y-67362423D01*
X94685845Y-67362424D01*
X94754262Y-67408139D01*
X94904690Y-67508652D01*
X95162835Y-67560000D01*
X95162839Y-67560000D01*
X95250000Y-67577337D01*
X95337161Y-67560000D01*
X95517025Y-67560000D01*
X95763783Y-67806758D01*
X96120070Y-67954337D01*
X95717337Y-68148236D01*
X95370203Y-68536604D01*
X95227284Y-68881671D01*
X95350626Y-69088000D01*
X96393000Y-69088000D01*
X96393000Y-69068000D01*
X96647000Y-69068000D01*
X96647000Y-69088000D01*
X97689374Y-69088000D01*
X97812716Y-68881671D01*
X97669797Y-68536604D01*
X97322663Y-68148236D01*
X96919930Y-67954337D01*
X97276217Y-67806758D01*
X97651758Y-67431217D01*
X97855000Y-66940548D01*
X97855000Y-66409452D01*
X97651758Y-65918783D01*
X97276217Y-65543242D01*
X96942472Y-65405000D01*
X97276217Y-65266758D01*
X97522975Y-65020000D01*
X98058422Y-65020000D01*
X98175001Y-65136580D01*
X98175000Y-70855479D01*
X98025423Y-70955424D01*
X97790000Y-71307759D01*
X97554576Y-70955423D01*
X97079908Y-70638260D01*
X96636197Y-70550000D01*
X96647002Y-70550000D01*
X96647002Y-70385207D01*
X96853331Y-70507727D01*
X97322663Y-70281764D01*
X97669797Y-69893396D01*
X97812716Y-69548329D01*
X97689374Y-69342000D01*
X96647000Y-69342000D01*
X96647000Y-69362000D01*
X96393000Y-69362000D01*
X96393000Y-69342000D01*
X95350626Y-69342000D01*
X95227284Y-69548329D01*
X95370203Y-69893396D01*
X95717337Y-70281764D01*
X96186669Y-70507727D01*
X96392998Y-70385207D01*
X96392998Y-70550000D01*
X96403803Y-70550000D01*
X95960091Y-70638260D01*
X95485423Y-70955424D01*
X95168260Y-71430092D01*
X95085000Y-71848668D01*
X95085000Y-72931333D01*
X95168260Y-73349909D01*
X95485424Y-73824577D01*
X95960092Y-74141740D01*
X96520000Y-74253113D01*
X97079909Y-74141740D01*
X97554577Y-73824577D01*
X97790000Y-73472241D01*
X98025424Y-73824577D01*
X98500092Y-74141740D01*
X99060000Y-74253113D01*
X99619909Y-74141740D01*
X100094577Y-73824577D01*
X100330000Y-73472241D01*
X100565424Y-73824577D01*
X101040092Y-74141740D01*
X101600000Y-74253113D01*
X102159909Y-74141740D01*
X102634577Y-73824577D01*
X102870000Y-73472241D01*
X103105424Y-73824577D01*
X103580092Y-74141740D01*
X104140000Y-74253113D01*
X104699909Y-74141740D01*
X105174577Y-73824577D01*
X105475268Y-73374561D01*
X106515000Y-73374561D01*
X106515000Y-73945439D01*
X106733466Y-74472862D01*
X107137138Y-74876534D01*
X107664561Y-75095000D01*
X108235439Y-75095000D01*
X108762862Y-74876534D01*
X109166534Y-74472862D01*
X109385000Y-73945439D01*
X109385000Y-73374561D01*
X109166534Y-72847138D01*
X108762862Y-72443466D01*
X108235439Y-72225000D01*
X107664561Y-72225000D01*
X107137138Y-72443466D01*
X106733466Y-72847138D01*
X106515000Y-73374561D01*
X105475268Y-73374561D01*
X105491740Y-73349909D01*
X105575000Y-72931332D01*
X105575000Y-71848668D01*
X110325000Y-71848668D01*
X110325000Y-72931333D01*
X110408260Y-73349909D01*
X110725424Y-73824577D01*
X111200092Y-74141740D01*
X111760000Y-74253113D01*
X112319909Y-74141740D01*
X112794577Y-73824577D01*
X113030000Y-73472241D01*
X113265424Y-73824577D01*
X113740092Y-74141740D01*
X114300000Y-74253113D01*
X114859909Y-74141740D01*
X115334577Y-73824577D01*
X115570000Y-73472241D01*
X115805424Y-73824577D01*
X115955001Y-73924521D01*
X115955001Y-74002835D01*
X115937663Y-74090000D01*
X116006348Y-74435309D01*
X116152576Y-74654154D01*
X116152578Y-74654156D01*
X116201952Y-74728049D01*
X116275845Y-74777423D01*
X118262577Y-76764156D01*
X118311951Y-76838049D01*
X118385844Y-76887423D01*
X118385845Y-76887424D01*
X118604690Y-77033652D01*
X118862835Y-77085000D01*
X118862839Y-77085000D01*
X118950000Y-77102337D01*
X119037161Y-77085000D01*
X125007839Y-77085000D01*
X125095000Y-77102337D01*
X125182161Y-77085000D01*
X125182165Y-77085000D01*
X125440310Y-77033652D01*
X125733049Y-76838049D01*
X125782425Y-76764153D01*
X126929156Y-75617423D01*
X127003049Y-75568049D01*
X127198652Y-75275310D01*
X127250000Y-75017165D01*
X127250000Y-75017161D01*
X127267337Y-74930001D01*
X127250000Y-74842841D01*
X127250000Y-71499252D01*
X127327481Y-71447481D01*
X127622542Y-71005891D01*
X127726154Y-70485000D01*
X127622542Y-69964109D01*
X127327481Y-69522519D01*
X126885891Y-69227458D01*
X126496485Y-69150000D01*
X126233515Y-69150000D01*
X125844109Y-69227458D01*
X125402519Y-69522519D01*
X125107458Y-69964109D01*
X125003846Y-70485000D01*
X125107458Y-71005891D01*
X125402519Y-71447481D01*
X125480001Y-71499253D01*
X125480000Y-74563421D01*
X124728422Y-75315000D01*
X119316579Y-75315000D01*
X117845550Y-73843972D01*
X117874577Y-73824577D01*
X118110000Y-73472241D01*
X118345424Y-73824577D01*
X118820092Y-74141740D01*
X119380000Y-74253113D01*
X119939909Y-74141740D01*
X120414577Y-73824577D01*
X120715268Y-73374561D01*
X121755000Y-73374561D01*
X121755000Y-73945439D01*
X121973466Y-74472862D01*
X122377138Y-74876534D01*
X122904561Y-75095000D01*
X123475439Y-75095000D01*
X124002862Y-74876534D01*
X124406534Y-74472862D01*
X124625000Y-73945439D01*
X124625000Y-73374561D01*
X124406534Y-72847138D01*
X124002862Y-72443466D01*
X123475439Y-72225000D01*
X122904561Y-72225000D01*
X122377138Y-72443466D01*
X121973466Y-72847138D01*
X121755000Y-73374561D01*
X120715268Y-73374561D01*
X120731740Y-73349909D01*
X120815000Y-72931332D01*
X120815000Y-71848667D01*
X120731740Y-71430091D01*
X120414576Y-70955423D01*
X120265000Y-70855480D01*
X120265000Y-70217975D01*
X120382975Y-70100000D01*
X122125604Y-70100000D01*
X122457138Y-70431534D01*
X122984561Y-70650000D01*
X123555439Y-70650000D01*
X124082862Y-70431534D01*
X124486534Y-70027862D01*
X124705000Y-69500439D01*
X124705000Y-68929561D01*
X124486534Y-68402138D01*
X124315146Y-68230750D01*
X130980000Y-68230750D01*
X130980000Y-68941309D01*
X131076673Y-69174698D01*
X131255301Y-69353327D01*
X131488690Y-69450000D01*
X132429250Y-69450000D01*
X132588000Y-69291250D01*
X132588000Y-68072000D01*
X132842000Y-68072000D01*
X132842000Y-69291250D01*
X133000750Y-69450000D01*
X133941310Y-69450000D01*
X134174699Y-69353327D01*
X134353327Y-69174698D01*
X134450000Y-68941309D01*
X134450000Y-68230750D01*
X134291250Y-68072000D01*
X132842000Y-68072000D01*
X132588000Y-68072000D01*
X131138750Y-68072000D01*
X130980000Y-68230750D01*
X124315146Y-68230750D01*
X124082862Y-67998466D01*
X123555439Y-67780000D01*
X122984561Y-67780000D01*
X122457138Y-67998466D01*
X122125604Y-68330000D01*
X120382975Y-68330000D01*
X120136217Y-68083242D01*
X119802472Y-67945000D01*
X120136217Y-67806758D01*
X120511758Y-67431217D01*
X120715000Y-66940548D01*
X120715000Y-66409452D01*
X120511758Y-65918783D01*
X120136217Y-65543242D01*
X119814082Y-65409809D01*
X119900891Y-65392542D01*
X120342481Y-65097481D01*
X120394252Y-65020000D01*
X122050209Y-65020000D01*
X122053466Y-65027862D01*
X122457138Y-65431534D01*
X122984561Y-65650000D01*
X123555439Y-65650000D01*
X124082862Y-65431534D01*
X124486534Y-65027862D01*
X124705000Y-64500439D01*
X124705000Y-63929561D01*
X124486534Y-63402138D01*
X124082862Y-62998466D01*
X123555439Y-62780000D01*
X122984561Y-62780000D01*
X122457138Y-62998466D01*
X122205604Y-63250000D01*
X120394252Y-63250000D01*
X120342481Y-63172519D01*
X119900891Y-62877458D01*
X119511485Y-62800000D01*
X119296578Y-62800000D01*
X119115487Y-62618909D01*
X119134944Y-62599452D01*
X125030000Y-62599452D01*
X125030000Y-63130548D01*
X125233242Y-63621217D01*
X125608783Y-63996758D01*
X126099452Y-64200000D01*
X126448422Y-64200000D01*
X128217577Y-65969156D01*
X128266951Y-66043049D01*
X128340844Y-66092423D01*
X128340845Y-66092424D01*
X128368414Y-66110845D01*
X128559690Y-66238652D01*
X128817835Y-66290000D01*
X128817839Y-66290000D01*
X128904999Y-66307337D01*
X128992159Y-66290000D01*
X131266291Y-66290000D01*
X131393001Y-66479636D01*
X131255301Y-66536673D01*
X131076673Y-66715302D01*
X130980000Y-66948691D01*
X130980000Y-67659250D01*
X131138750Y-67818000D01*
X132588000Y-67818000D01*
X132588000Y-67798000D01*
X132842000Y-67798000D01*
X132842000Y-67818000D01*
X134291250Y-67818000D01*
X134450000Y-67659250D01*
X134450000Y-66948691D01*
X134353327Y-66715302D01*
X134174699Y-66536673D01*
X134036999Y-66479636D01*
X134362678Y-65992222D01*
X134479484Y-65405000D01*
X134362678Y-64817778D01*
X134030044Y-64319956D01*
X133532222Y-63987322D01*
X133093226Y-63900000D01*
X132336774Y-63900000D01*
X131897778Y-63987322D01*
X131399956Y-64319956D01*
X131266291Y-64520000D01*
X129271579Y-64520000D01*
X127700000Y-62948422D01*
X127700000Y-62599452D01*
X127496758Y-62108783D01*
X127121217Y-61733242D01*
X126630548Y-61530000D01*
X126099452Y-61530000D01*
X125608783Y-61733242D01*
X125233242Y-62108783D01*
X125030000Y-62599452D01*
X119134944Y-62599452D01*
X119326534Y-62407862D01*
X119545000Y-61880439D01*
X119545000Y-61309561D01*
X119326534Y-60782138D01*
X118922862Y-60378466D01*
X118793784Y-60325000D01*
X118922862Y-60271534D01*
X119326534Y-59867862D01*
X119545000Y-59340439D01*
X119545000Y-58769561D01*
X119326534Y-58242138D01*
X118922862Y-57838466D01*
X118395439Y-57620000D01*
X117824561Y-57620000D01*
X117297138Y-57838466D01*
X116965604Y-58170000D01*
X115737159Y-58170000D01*
X115649999Y-58152663D01*
X115562839Y-58170000D01*
X115562835Y-58170000D01*
X115304690Y-58221348D01*
X115304688Y-58221349D01*
X115304689Y-58221349D01*
X115085845Y-58367576D01*
X115085844Y-58367577D01*
X115011951Y-58416951D01*
X114962577Y-58490844D01*
X114545000Y-58908421D01*
X114545000Y-58769561D01*
X114326534Y-58242138D01*
X113922862Y-57838466D01*
X113395439Y-57620000D01*
X112824561Y-57620000D01*
X112297138Y-57838466D01*
X111893466Y-58242138D01*
X111675000Y-58769561D01*
X111675000Y-59340439D01*
X111893466Y-59867862D01*
X112297138Y-60271534D01*
X112426216Y-60325000D01*
X112297138Y-60378466D01*
X111893466Y-60782138D01*
X111675000Y-61309561D01*
X111675000Y-61880439D01*
X111893466Y-62407862D01*
X112297138Y-62811534D01*
X112824561Y-63030000D01*
X113293422Y-63030000D01*
X117502577Y-67239156D01*
X117551951Y-67313049D01*
X117625844Y-67362423D01*
X117625845Y-67362424D01*
X117694262Y-67408139D01*
X117844690Y-67508652D01*
X118102835Y-67560000D01*
X118102839Y-67560000D01*
X118190000Y-67577337D01*
X118277161Y-67560000D01*
X118377025Y-67560000D01*
X118623783Y-67806758D01*
X118957528Y-67945000D01*
X118623783Y-68083242D01*
X118248242Y-68458783D01*
X118045000Y-68949452D01*
X118045000Y-69480548D01*
X118248242Y-69971217D01*
X118495000Y-70217975D01*
X118495001Y-70855479D01*
X118345423Y-70955424D01*
X118110000Y-71307759D01*
X117874576Y-70955423D01*
X117399908Y-70638260D01*
X116840000Y-70526887D01*
X116280091Y-70638260D01*
X115805423Y-70955424D01*
X115570000Y-71307759D01*
X115334576Y-70955423D01*
X115185000Y-70855480D01*
X115185000Y-65492159D01*
X115202337Y-65404999D01*
X115185000Y-65317839D01*
X115185000Y-65317835D01*
X115133652Y-65059690D01*
X115028570Y-64902424D01*
X114987424Y-64840845D01*
X114987423Y-64840844D01*
X114938049Y-64766951D01*
X114864156Y-64717577D01*
X113717425Y-63570847D01*
X113668049Y-63496951D01*
X113375310Y-63301348D01*
X113117165Y-63250000D01*
X113117161Y-63250000D01*
X113030000Y-63232663D01*
X112942839Y-63250000D01*
X112762975Y-63250000D01*
X112516217Y-63003242D01*
X112025548Y-62800000D01*
X111494452Y-62800000D01*
X111003783Y-63003242D01*
X110628242Y-63378783D01*
X110425000Y-63869452D01*
X110425000Y-64400548D01*
X110628242Y-64891217D01*
X111003783Y-65266758D01*
X111360070Y-65414337D01*
X110957337Y-65608236D01*
X110610203Y-65996604D01*
X110467284Y-66341671D01*
X110590626Y-66548000D01*
X111633000Y-66548000D01*
X111633000Y-66528000D01*
X111887000Y-66528000D01*
X111887000Y-66548000D01*
X112929374Y-66548000D01*
X113052716Y-66341671D01*
X112909797Y-65996604D01*
X112562663Y-65608236D01*
X112159930Y-65414337D01*
X112516217Y-65266758D01*
X112713198Y-65069777D01*
X113415001Y-65771580D01*
X113415000Y-70855479D01*
X113265423Y-70955424D01*
X113030000Y-71307759D01*
X112794576Y-70955423D01*
X112319908Y-70638260D01*
X111876197Y-70550000D01*
X111887002Y-70550000D01*
X111887002Y-70385207D01*
X112093331Y-70507727D01*
X112562663Y-70281764D01*
X112909797Y-69893396D01*
X113052716Y-69548329D01*
X112929374Y-69342000D01*
X111887000Y-69342000D01*
X111887000Y-69362000D01*
X111633000Y-69362000D01*
X111633000Y-69342000D01*
X110590626Y-69342000D01*
X110467284Y-69548329D01*
X110610203Y-69893396D01*
X110957337Y-70281764D01*
X111426669Y-70507727D01*
X111632998Y-70385207D01*
X111632998Y-70550000D01*
X111643803Y-70550000D01*
X111200091Y-70638260D01*
X110725423Y-70955424D01*
X110408260Y-71430092D01*
X110325000Y-71848668D01*
X105575000Y-71848668D01*
X105575000Y-71848667D01*
X105491740Y-71430091D01*
X105174576Y-70955423D01*
X105025000Y-70855480D01*
X105025000Y-70217975D01*
X105142975Y-70100000D01*
X106725604Y-70100000D01*
X107057138Y-70431534D01*
X107584561Y-70650000D01*
X108155439Y-70650000D01*
X108682862Y-70431534D01*
X109086534Y-70027862D01*
X109305000Y-69500439D01*
X109305000Y-68929561D01*
X109086534Y-68402138D01*
X108682862Y-67998466D01*
X108155439Y-67780000D01*
X107584561Y-67780000D01*
X107057138Y-67998466D01*
X106725604Y-68330000D01*
X105142975Y-68330000D01*
X104896217Y-68083242D01*
X104539930Y-67935663D01*
X104942663Y-67741764D01*
X105289797Y-67353396D01*
X105432716Y-67008329D01*
X110467284Y-67008329D01*
X110610203Y-67353396D01*
X110957337Y-67741764D01*
X111379464Y-67945000D01*
X110957337Y-68148236D01*
X110610203Y-68536604D01*
X110467284Y-68881671D01*
X110590626Y-69088000D01*
X111633000Y-69088000D01*
X111633000Y-68044794D01*
X111464942Y-67945000D01*
X111633000Y-67845206D01*
X111633000Y-66802000D01*
X111887000Y-66802000D01*
X111887000Y-67845206D01*
X112055058Y-67945000D01*
X111887000Y-68044794D01*
X111887000Y-69088000D01*
X112929374Y-69088000D01*
X113052716Y-68881671D01*
X112909797Y-68536604D01*
X112562663Y-68148236D01*
X112140536Y-67945000D01*
X112562663Y-67741764D01*
X112909797Y-67353396D01*
X113052716Y-67008329D01*
X112929374Y-66802000D01*
X111887000Y-66802000D01*
X111633000Y-66802000D01*
X110590626Y-66802000D01*
X110467284Y-67008329D01*
X105432716Y-67008329D01*
X105309374Y-66802000D01*
X104267000Y-66802000D01*
X104267000Y-66822000D01*
X104013000Y-66822000D01*
X104013000Y-66802000D01*
X102970626Y-66802000D01*
X102847284Y-67008329D01*
X102990203Y-67353396D01*
X103337337Y-67741764D01*
X103740070Y-67935663D01*
X103383783Y-68083242D01*
X103008242Y-68458783D01*
X102805000Y-68949452D01*
X102805000Y-69480548D01*
X103008242Y-69971217D01*
X103255001Y-70217976D01*
X103255000Y-70855479D01*
X103105423Y-70955424D01*
X102870000Y-71307759D01*
X102634576Y-70955423D01*
X102159908Y-70638260D01*
X101600000Y-70526887D01*
X101040091Y-70638260D01*
X100565423Y-70955424D01*
X100330000Y-71307759D01*
X100094576Y-70955423D01*
X99945000Y-70855480D01*
X99945000Y-64857161D01*
X99962337Y-64770000D01*
X99945000Y-64682839D01*
X99945000Y-64682835D01*
X99893652Y-64424690D01*
X99753541Y-64215000D01*
X99747424Y-64205845D01*
X99747423Y-64205844D01*
X99698049Y-64131951D01*
X99624156Y-64082577D01*
X99112425Y-63570846D01*
X99063049Y-63496951D01*
X98770310Y-63301348D01*
X98512165Y-63250000D01*
X98512161Y-63250000D01*
X98425000Y-63232663D01*
X98337839Y-63250000D01*
X97522975Y-63250000D01*
X97276217Y-63003242D01*
X96785548Y-62800000D01*
X96254452Y-62800000D01*
X95763783Y-63003242D01*
X95500000Y-63267025D01*
X95500000Y-62596578D01*
X95616579Y-62480000D01*
X96725604Y-62480000D01*
X97057138Y-62811534D01*
X97584561Y-63030000D01*
X98155439Y-63030000D01*
X98682862Y-62811534D01*
X99086534Y-62407862D01*
X99305000Y-61880439D01*
X99305000Y-61309561D01*
X99086534Y-60782138D01*
X98755000Y-60450604D01*
X98755000Y-60199396D01*
X99086534Y-59867862D01*
X99305000Y-59340439D01*
X99305000Y-58769561D01*
X99086534Y-58242138D01*
X98879396Y-58035000D01*
X100598422Y-58035000D01*
X101435000Y-58871579D01*
X101435000Y-59340439D01*
X101653466Y-59867862D01*
X102057138Y-60271534D01*
X102186216Y-60325000D01*
X102057138Y-60378466D01*
X101653466Y-60782138D01*
X101435000Y-61309561D01*
X101435000Y-61880439D01*
X101653466Y-62407862D01*
X101985001Y-62739397D01*
X101985001Y-62777835D01*
X101967663Y-62865000D01*
X102036348Y-63210309D01*
X102182576Y-63429154D01*
X102182578Y-63429156D01*
X102231952Y-63503049D01*
X102305845Y-63552423D01*
X102797026Y-64043604D01*
X102778846Y-64135000D01*
X102882458Y-64655891D01*
X103177519Y-65097481D01*
X103619109Y-65392542D01*
X103736741Y-65415940D01*
X103337337Y-65608236D01*
X102990203Y-65996604D01*
X102847284Y-66341671D01*
X102970626Y-66548000D01*
X104013000Y-66548000D01*
X104013000Y-66528000D01*
X104267000Y-66528000D01*
X104267000Y-66548000D01*
X105309374Y-66548000D01*
X105432716Y-66341671D01*
X105289797Y-65996604D01*
X104942663Y-65608236D01*
X104543259Y-65415940D01*
X104660891Y-65392542D01*
X105098711Y-65100000D01*
X106725604Y-65100000D01*
X107057138Y-65431534D01*
X107584561Y-65650000D01*
X108155439Y-65650000D01*
X108682862Y-65431534D01*
X109086534Y-65027862D01*
X109305000Y-64500439D01*
X109305000Y-63929561D01*
X109086534Y-63402138D01*
X108682862Y-62998466D01*
X108155439Y-62780000D01*
X107584561Y-62780000D01*
X107057138Y-62998466D01*
X106725604Y-63330000D01*
X105207706Y-63330000D01*
X105102481Y-63172519D01*
X104660891Y-62877458D01*
X104271485Y-62800000D01*
X104056578Y-62800000D01*
X103875487Y-62618909D01*
X104086534Y-62407862D01*
X104305000Y-61880439D01*
X104305000Y-61309561D01*
X104086534Y-60782138D01*
X103682862Y-60378466D01*
X103553784Y-60325000D01*
X103682862Y-60271534D01*
X104086534Y-59867862D01*
X104305000Y-59340439D01*
X104305000Y-58769561D01*
X104086534Y-58242138D01*
X103682862Y-57838466D01*
X103155439Y-57620000D01*
X102686579Y-57620000D01*
X101652425Y-56585847D01*
X101603049Y-56511951D01*
X101310310Y-56316348D01*
X101052165Y-56265000D01*
X101052161Y-56265000D01*
X100965000Y-56247663D01*
X100877839Y-56265000D01*
X96323687Y-56265000D01*
X96034540Y-55975853D01*
X95525494Y-55765000D01*
X94974506Y-55765000D01*
X94465460Y-55975853D01*
X94075853Y-56365460D01*
X93865000Y-56874506D01*
X93865000Y-57425494D01*
X94075853Y-57934540D01*
X94465460Y-58324147D01*
X94974506Y-58535000D01*
X95525494Y-58535000D01*
X96034540Y-58324147D01*
X96323687Y-58035000D01*
X96860604Y-58035000D01*
X96653466Y-58242138D01*
X96435000Y-58769561D01*
X96435000Y-59340439D01*
X96653466Y-59867862D01*
X96985000Y-60199396D01*
X96985001Y-60450603D01*
X96725604Y-60710000D01*
X95337161Y-60710000D01*
X95250000Y-60692663D01*
X95162839Y-60710000D01*
X95162835Y-60710000D01*
X94904690Y-60761348D01*
X94685845Y-60907576D01*
X94685844Y-60907577D01*
X94611951Y-60956951D01*
X94562577Y-61030844D01*
X94050844Y-61542577D01*
X93976952Y-61591951D01*
X93927578Y-61665844D01*
X93927576Y-61665846D01*
X93781348Y-61884691D01*
X93712663Y-62230000D01*
X91108858Y-62230000D01*
X91208584Y-62047500D01*
X91226302Y-61955031D01*
X91105246Y-61722000D01*
X89662000Y-61722000D01*
X89408000Y-61722000D01*
X87964754Y-61722000D01*
X87843698Y-61955031D01*
X83947000Y-61955031D01*
X83947000Y-58185000D01*
X87787560Y-58185000D01*
X87787560Y-59925000D01*
X87836843Y-60172765D01*
X87977191Y-60382809D01*
X88187235Y-60523157D01*
X88253860Y-60536409D01*
X88144467Y-60624509D01*
X87861416Y-61142500D01*
X87843698Y-61234969D01*
X87964754Y-61468000D01*
X89408000Y-61468000D01*
X89408000Y-61448000D01*
X89662000Y-61448000D01*
X89662000Y-61468000D01*
X91105246Y-61468000D01*
X91226302Y-61234969D01*
X91208584Y-61142500D01*
X90925533Y-60624509D01*
X90816140Y-60536409D01*
X90882765Y-60523157D01*
X91092809Y-60382809D01*
X91233157Y-60172765D01*
X91282440Y-59925000D01*
X91282440Y-58185000D01*
X91233157Y-57937235D01*
X91092809Y-57727191D01*
X90882765Y-57586843D01*
X90635000Y-57537560D01*
X88435000Y-57537560D01*
X88187235Y-57586843D01*
X87977191Y-57727191D01*
X87836843Y-57937235D01*
X87787560Y-58185000D01*
X83947000Y-58185000D01*
X83947000Y-52835757D01*
X85095000Y-52835757D01*
X85095000Y-53844243D01*
X85480930Y-54775962D01*
X86194038Y-55489070D01*
X87125757Y-55875000D01*
X88134243Y-55875000D01*
X89065962Y-55489070D01*
X89779070Y-54775962D01*
X90165000Y-53844243D01*
X90165000Y-52835757D01*
X130180000Y-52835757D01*
X130180000Y-53844243D01*
X130565930Y-54775962D01*
X131279038Y-55489070D01*
X132210757Y-55875000D01*
X133219243Y-55875000D01*
X134150962Y-55489070D01*
X134864070Y-54775962D01*
X135250000Y-53844243D01*
X135250000Y-52835757D01*
X134864070Y-51904038D01*
X134150962Y-51190930D01*
X133219243Y-50805000D01*
X132210757Y-50805000D01*
X131279038Y-51190930D01*
X130565930Y-51904038D01*
X130180000Y-52835757D01*
X90165000Y-52835757D01*
X89779070Y-51904038D01*
X89065962Y-51190930D01*
X88134243Y-50805000D01*
X87125757Y-50805000D01*
X86194038Y-51190930D01*
X85480930Y-51904038D01*
X85095000Y-52835757D01*
X83947000Y-52835757D01*
X83947000Y-49657000D01*
X137033000Y-49657000D01*
X137033000Y-102743000D01*
X137033000Y-102743000D01*
G37*
X137033000Y-102743000D02*
X83947000Y-102743000D01*
X83947000Y-98555757D01*
X85095000Y-98555757D01*
X85095000Y-99564243D01*
X85480930Y-100495962D01*
X86194038Y-101209070D01*
X87125757Y-101595000D01*
X88134243Y-101595000D01*
X89065962Y-101209070D01*
X89779070Y-100495962D01*
X90165000Y-99564243D01*
X90165000Y-98555757D01*
X130815000Y-98555757D01*
X130815000Y-99564243D01*
X131200930Y-100495962D01*
X131914038Y-101209070D01*
X132845757Y-101595000D01*
X133854243Y-101595000D01*
X134785962Y-101209070D01*
X135499070Y-100495962D01*
X135885000Y-99564243D01*
X135885000Y-98555757D01*
X135499070Y-97624038D01*
X134785962Y-96910930D01*
X133854243Y-96525000D01*
X132845757Y-96525000D01*
X131914038Y-96910930D01*
X131200930Y-97624038D01*
X130815000Y-98555757D01*
X90165000Y-98555757D01*
X89779070Y-97624038D01*
X89065962Y-96910930D01*
X88134243Y-96525000D01*
X87125757Y-96525000D01*
X86194038Y-96910930D01*
X85480930Y-97624038D01*
X85095000Y-98555757D01*
X83947000Y-98555757D01*
X83947000Y-95609506D01*
X93865000Y-95609506D01*
X93865000Y-96160494D01*
X94075853Y-96669540D01*
X94465460Y-97059147D01*
X94974506Y-97270000D01*
X95525494Y-97270000D01*
X96034540Y-97059147D01*
X96323687Y-96770000D01*
X100242839Y-96770000D01*
X100330000Y-96787337D01*
X100417161Y-96770000D01*
X100417165Y-96770000D01*
X100675310Y-96718652D01*
X100968049Y-96523049D01*
X101017425Y-96449153D01*
X102686579Y-94780000D01*
X103155439Y-94780000D01*
X103682862Y-94561534D01*
X104086534Y-94157862D01*
X104305000Y-93630439D01*
X104305000Y-93059561D01*
X104086534Y-92532138D01*
X103682862Y-92128466D01*
X103553784Y-92075000D01*
X103682862Y-92021534D01*
X104086534Y-91617862D01*
X104305000Y-91090439D01*
X104305000Y-90519561D01*
X104086534Y-89992138D01*
X103875487Y-89781091D01*
X104056578Y-89600000D01*
X104271485Y-89600000D01*
X104660891Y-89522542D01*
X105102481Y-89227481D01*
X105207706Y-89070000D01*
X106805604Y-89070000D01*
X107137138Y-89401534D01*
X107664561Y-89620000D01*
X108235439Y-89620000D01*
X108762862Y-89401534D01*
X109166534Y-88997862D01*
X109385000Y-88470439D01*
X109385000Y-87899561D01*
X109166534Y-87372138D01*
X108762862Y-86968466D01*
X108235439Y-86750000D01*
X107664561Y-86750000D01*
X107137138Y-86968466D01*
X106805604Y-87300000D01*
X105098711Y-87300000D01*
X104660891Y-87007458D01*
X104543259Y-86984060D01*
X104942663Y-86791764D01*
X105289797Y-86403396D01*
X105432716Y-86058329D01*
X105309374Y-85852000D01*
X104267000Y-85852000D01*
X104267000Y-85872000D01*
X104013000Y-85872000D01*
X104013000Y-85852000D01*
X102970626Y-85852000D01*
X102847284Y-86058329D01*
X102990203Y-86403396D01*
X103337337Y-86791764D01*
X103736741Y-86984060D01*
X103619109Y-87007458D01*
X103177519Y-87302519D01*
X102882458Y-87744109D01*
X102778846Y-88265000D01*
X102797026Y-88356396D01*
X102305845Y-88847577D01*
X102231952Y-88896951D01*
X102182578Y-88970844D01*
X102182576Y-88970846D01*
X102036348Y-89189691D01*
X101967663Y-89535000D01*
X101985001Y-89622165D01*
X101985001Y-89660603D01*
X101653466Y-89992138D01*
X101435000Y-90519561D01*
X101435000Y-91090439D01*
X101653466Y-91617862D01*
X102057138Y-92021534D01*
X102186216Y-92075000D01*
X102057138Y-92128466D01*
X101653466Y-92532138D01*
X101435000Y-93059561D01*
X101435000Y-93528421D01*
X99963422Y-95000000D01*
X96323687Y-95000000D01*
X96034540Y-94710853D01*
X95525494Y-94500000D01*
X94974506Y-94500000D01*
X94465460Y-94710853D01*
X94075853Y-95100460D01*
X93865000Y-95609506D01*
X83947000Y-95609506D01*
X83947000Y-92475000D01*
X87787560Y-92475000D01*
X87787560Y-94215000D01*
X87836843Y-94462765D01*
X87977191Y-94672809D01*
X88187235Y-94813157D01*
X88435000Y-94862440D01*
X90635000Y-94862440D01*
X90882765Y-94813157D01*
X91092809Y-94672809D01*
X91233157Y-94462765D01*
X91282440Y-94215000D01*
X91282440Y-92475000D01*
X91233157Y-92227235D01*
X91092809Y-92017191D01*
X90882765Y-91876843D01*
X90816140Y-91863591D01*
X90925533Y-91775491D01*
X91208584Y-91257500D01*
X91226302Y-91165031D01*
X91105246Y-90932000D01*
X89662000Y-90932000D01*
X89662000Y-90952000D01*
X89408000Y-90952000D01*
X89408000Y-90932000D01*
X87964754Y-90932000D01*
X87843698Y-91165031D01*
X87861416Y-91257500D01*
X88144467Y-91775491D01*
X88253860Y-91863591D01*
X88187235Y-91876843D01*
X87977191Y-92017191D01*
X87836843Y-92227235D01*
X87787560Y-92475000D01*
X83947000Y-92475000D01*
X83947000Y-90444969D01*
X87843698Y-90444969D01*
X87964754Y-90678000D01*
X89408000Y-90678000D01*
X89408000Y-89454418D01*
X89662000Y-89454418D01*
X89662000Y-90678000D01*
X91105246Y-90678000D01*
X91226302Y-90444969D01*
X91208584Y-90352500D01*
X90925533Y-89834509D01*
X90465802Y-89464266D01*
X89899380Y-89298138D01*
X89662000Y-89454418D01*
X89408000Y-89454418D01*
X89170620Y-89298138D01*
X88604198Y-89464266D01*
X88144467Y-89834509D01*
X87861416Y-90352500D01*
X87843698Y-90444969D01*
X83947000Y-90444969D01*
X83947000Y-86010750D01*
X88100000Y-86010750D01*
X88100000Y-86651309D01*
X88196673Y-86884698D01*
X88375301Y-87063327D01*
X88608690Y-87160000D01*
X89249250Y-87160000D01*
X89408000Y-87001250D01*
X89408000Y-85852000D01*
X89662000Y-85852000D01*
X89662000Y-87001250D01*
X89820750Y-87160000D01*
X90461310Y-87160000D01*
X90694699Y-87063327D01*
X90873327Y-86884698D01*
X90970000Y-86651309D01*
X90970000Y-86010750D01*
X90811250Y-85852000D01*
X89662000Y-85852000D01*
X89408000Y-85852000D01*
X88258750Y-85852000D01*
X88100000Y-86010750D01*
X83947000Y-86010750D01*
X83947000Y-83439561D01*
X88100000Y-83439561D01*
X88100000Y-84010439D01*
X88290830Y-84471144D01*
X88196673Y-84565302D01*
X88100000Y-84798691D01*
X88100000Y-85439250D01*
X88258750Y-85598000D01*
X89408000Y-85598000D01*
X89408000Y-85578000D01*
X89662000Y-85578000D01*
X89662000Y-85598000D01*
X90811250Y-85598000D01*
X90970000Y-85439250D01*
X90970000Y-84798691D01*
X90873327Y-84565302D01*
X90779170Y-84471144D01*
X90970000Y-84010439D01*
X90970000Y-83439561D01*
X90751534Y-82912138D01*
X90347862Y-82508466D01*
X89820439Y-82290000D01*
X89249561Y-82290000D01*
X88722138Y-82508466D01*
X88318466Y-82912138D01*
X88100000Y-83439561D01*
X83947000Y-83439561D01*
X83947000Y-80615000D01*
X93712663Y-80615000D01*
X93730000Y-80702161D01*
X93730001Y-87542835D01*
X93712663Y-87630000D01*
X93781348Y-87975309D01*
X93927576Y-88194154D01*
X93927578Y-88194156D01*
X93976952Y-88268049D01*
X94050844Y-88317423D01*
X94562576Y-88829155D01*
X94611951Y-88903049D01*
X94685844Y-88952423D01*
X94685845Y-88952424D01*
X94753848Y-88997862D01*
X94904690Y-89098652D01*
X95162835Y-89150000D01*
X95162839Y-89150000D01*
X95250000Y-89167337D01*
X95337161Y-89150000D01*
X95517025Y-89150000D01*
X95763783Y-89396758D01*
X96254452Y-89600000D01*
X96785548Y-89600000D01*
X97276217Y-89396758D01*
X97651758Y-89021217D01*
X97784999Y-88699544D01*
X97784999Y-89370000D01*
X97584561Y-89370000D01*
X97057138Y-89588466D01*
X96653466Y-89992138D01*
X96435000Y-90519561D01*
X96435000Y-91090439D01*
X96653466Y-91617862D01*
X96985001Y-91949397D01*
X96985000Y-92200604D01*
X96653466Y-92532138D01*
X96435000Y-93059561D01*
X96435000Y-93630439D01*
X96653466Y-94157862D01*
X97057138Y-94561534D01*
X97584561Y-94780000D01*
X98155439Y-94780000D01*
X98682862Y-94561534D01*
X99086534Y-94157862D01*
X99305000Y-93630439D01*
X99305000Y-93059561D01*
X99086534Y-92532138D01*
X98755000Y-92200604D01*
X98755000Y-91949396D01*
X99086534Y-91617862D01*
X99305000Y-91090439D01*
X99305000Y-90645087D01*
X99308048Y-90643050D01*
X99503651Y-90350311D01*
X99554999Y-90092166D01*
X99554999Y-90092162D01*
X99572336Y-90005002D01*
X99554999Y-89917842D01*
X99554999Y-86692160D01*
X99572336Y-86604999D01*
X99554999Y-86517838D01*
X99554999Y-86517834D01*
X99503651Y-86259689D01*
X99357423Y-86040844D01*
X99357422Y-86040843D01*
X99308048Y-85966950D01*
X99234155Y-85917576D01*
X98477425Y-85160847D01*
X98428049Y-85086951D01*
X98135310Y-84891348D01*
X97877165Y-84840000D01*
X97877161Y-84840000D01*
X97790000Y-84822663D01*
X97702839Y-84840000D01*
X97522975Y-84840000D01*
X97276217Y-84593242D01*
X96919930Y-84445663D01*
X97322663Y-84251764D01*
X97669797Y-83863396D01*
X97812716Y-83518329D01*
X97689374Y-83312000D01*
X96647000Y-83312000D01*
X96647000Y-83332000D01*
X96393000Y-83332000D01*
X96393000Y-83312000D01*
X96373000Y-83312000D01*
X96373000Y-83058000D01*
X96393000Y-83058000D01*
X96393000Y-83038000D01*
X96647000Y-83038000D01*
X96647000Y-83058000D01*
X97689374Y-83058000D01*
X97812716Y-82851671D01*
X97669797Y-82506604D01*
X97322663Y-82118236D01*
X96853331Y-81892273D01*
X96647002Y-82014793D01*
X96647002Y-81857440D01*
X97320000Y-81857440D01*
X97567765Y-81808157D01*
X97777809Y-81667809D01*
X97918157Y-81457765D01*
X97944785Y-81323893D01*
X98025424Y-81444577D01*
X98500092Y-81761740D01*
X99060000Y-81873113D01*
X99619909Y-81761740D01*
X100094577Y-81444577D01*
X100330000Y-81092241D01*
X100565424Y-81444577D01*
X101040092Y-81761740D01*
X101570708Y-81867286D01*
X102805000Y-83101579D01*
X102805000Y-83450548D01*
X103008242Y-83941217D01*
X103383783Y-84316758D01*
X103740070Y-84464337D01*
X103337337Y-84658236D01*
X102990203Y-85046604D01*
X102847284Y-85391671D01*
X102970626Y-85598000D01*
X104013000Y-85598000D01*
X104013000Y-85578000D01*
X104267000Y-85578000D01*
X104267000Y-85598000D01*
X105309374Y-85598000D01*
X105432716Y-85391671D01*
X105289797Y-85046604D01*
X104942663Y-84658236D01*
X104539930Y-84464337D01*
X104896217Y-84316758D01*
X105142975Y-84070000D01*
X106805604Y-84070000D01*
X107137138Y-84401534D01*
X107664561Y-84620000D01*
X108235439Y-84620000D01*
X108762862Y-84401534D01*
X108970001Y-84194395D01*
X108970000Y-86272839D01*
X108952663Y-86360000D01*
X108970000Y-86447161D01*
X108970000Y-86447164D01*
X109021348Y-86705309D01*
X109216951Y-86998049D01*
X109290847Y-87047425D01*
X110425000Y-88181579D01*
X110425000Y-88530548D01*
X110628242Y-89021217D01*
X111003783Y-89396758D01*
X111494452Y-89600000D01*
X112025548Y-89600000D01*
X112516217Y-89396758D01*
X112891758Y-89021217D01*
X113095000Y-88530548D01*
X113095000Y-87999452D01*
X112891758Y-87508783D01*
X112516217Y-87133242D01*
X112159930Y-86985663D01*
X112562663Y-86791764D01*
X112909797Y-86403396D01*
X113052716Y-86058329D01*
X112929374Y-85852000D01*
X111887000Y-85852000D01*
X111887000Y-85872000D01*
X111633000Y-85872000D01*
X111633000Y-85852000D01*
X111613000Y-85852000D01*
X111613000Y-85598000D01*
X111633000Y-85598000D01*
X111633000Y-84554794D01*
X111464942Y-84455000D01*
X111633000Y-84355206D01*
X111633000Y-83312000D01*
X111887000Y-83312000D01*
X111887000Y-84355206D01*
X112055058Y-84455000D01*
X111887000Y-84554794D01*
X111887000Y-85598000D01*
X112929374Y-85598000D01*
X113052716Y-85391671D01*
X112909797Y-85046604D01*
X112562663Y-84658236D01*
X112140536Y-84455000D01*
X112562663Y-84251764D01*
X112909797Y-83863396D01*
X113052716Y-83518329D01*
X112929374Y-83312000D01*
X111887000Y-83312000D01*
X111633000Y-83312000D01*
X111613000Y-83312000D01*
X111613000Y-83058000D01*
X111633000Y-83058000D01*
X111633000Y-83038000D01*
X111887000Y-83038000D01*
X111887000Y-83058000D01*
X112929374Y-83058000D01*
X113052716Y-82851671D01*
X112909797Y-82506604D01*
X112562663Y-82118236D01*
X112093331Y-81892273D01*
X111887002Y-82014793D01*
X111887002Y-81857440D01*
X112560000Y-81857440D01*
X112807765Y-81808157D01*
X113017809Y-81667809D01*
X113158157Y-81457765D01*
X113184785Y-81323893D01*
X113265424Y-81444577D01*
X113740092Y-81761740D01*
X114300000Y-81873113D01*
X114859909Y-81761740D01*
X115334577Y-81444577D01*
X115570000Y-81092241D01*
X115805424Y-81444577D01*
X116280092Y-81761740D01*
X116810708Y-81867286D01*
X118045000Y-83101579D01*
X118045000Y-83450548D01*
X118248242Y-83941217D01*
X118623783Y-84316758D01*
X118957528Y-84455000D01*
X118623783Y-84593242D01*
X118377025Y-84840000D01*
X118277161Y-84840000D01*
X118190000Y-84822663D01*
X118102839Y-84840000D01*
X118102835Y-84840000D01*
X117844690Y-84891348D01*
X117625845Y-85037576D01*
X117625844Y-85037577D01*
X117551951Y-85086951D01*
X117502577Y-85160844D01*
X113293422Y-89370000D01*
X112824561Y-89370000D01*
X112297138Y-89588466D01*
X111893466Y-89992138D01*
X111675000Y-90519561D01*
X111675000Y-91090439D01*
X111893466Y-91617862D01*
X112297138Y-92021534D01*
X112426216Y-92075000D01*
X112297138Y-92128466D01*
X111893466Y-92532138D01*
X111675000Y-93059561D01*
X111675000Y-93630439D01*
X111893466Y-94157862D01*
X112297138Y-94561534D01*
X112824561Y-94780000D01*
X113395439Y-94780000D01*
X113922862Y-94561534D01*
X114326534Y-94157862D01*
X114545000Y-93630439D01*
X114545000Y-93491579D01*
X114962576Y-93909155D01*
X115011951Y-93983049D01*
X115085844Y-94032423D01*
X115085845Y-94032424D01*
X115196880Y-94106615D01*
X115304690Y-94178652D01*
X115562835Y-94230000D01*
X115562839Y-94230000D01*
X115649999Y-94247337D01*
X115737159Y-94230000D01*
X116965604Y-94230000D01*
X117297138Y-94561534D01*
X117824561Y-94780000D01*
X118395439Y-94780000D01*
X118922862Y-94561534D01*
X119326534Y-94157862D01*
X119545000Y-93630439D01*
X119545000Y-93059561D01*
X119326534Y-92532138D01*
X118922862Y-92128466D01*
X118793784Y-92075000D01*
X118922862Y-92021534D01*
X119326534Y-91617862D01*
X119545000Y-91090439D01*
X119545000Y-90621579D01*
X119944156Y-90222423D01*
X120018049Y-90173049D01*
X120072095Y-90092165D01*
X120213651Y-89880311D01*
X120213652Y-89880310D01*
X120265000Y-89622165D01*
X120265000Y-89622161D01*
X120282337Y-89535001D01*
X120265000Y-89447841D01*
X120265000Y-89279252D01*
X120342481Y-89227481D01*
X120394252Y-89150000D01*
X122045604Y-89150000D01*
X122377138Y-89481534D01*
X122904561Y-89700000D01*
X123475439Y-89700000D01*
X124002862Y-89481534D01*
X124406534Y-89077862D01*
X124590200Y-88634452D01*
X125030000Y-88634452D01*
X125030000Y-89165548D01*
X125233242Y-89656217D01*
X125608783Y-90031758D01*
X126099452Y-90235000D01*
X126630548Y-90235000D01*
X127121217Y-90031758D01*
X127496758Y-89656217D01*
X127700000Y-89165548D01*
X127700000Y-88816578D01*
X129235828Y-87280750D01*
X130980000Y-87280750D01*
X130980000Y-87991309D01*
X131076673Y-88224698D01*
X131255301Y-88403327D01*
X131488690Y-88500000D01*
X132429250Y-88500000D01*
X132588000Y-88341250D01*
X132588000Y-87122000D01*
X132842000Y-87122000D01*
X132842000Y-88341250D01*
X133000750Y-88500000D01*
X133941310Y-88500000D01*
X134174699Y-88403327D01*
X134353327Y-88224698D01*
X134450000Y-87991309D01*
X134450000Y-87280750D01*
X134291250Y-87122000D01*
X132842000Y-87122000D01*
X132588000Y-87122000D01*
X131138750Y-87122000D01*
X130980000Y-87280750D01*
X129235828Y-87280750D01*
X131176579Y-85340000D01*
X131266291Y-85340000D01*
X131393001Y-85529636D01*
X131255301Y-85586673D01*
X131076673Y-85765302D01*
X130980000Y-85998691D01*
X130980000Y-86709250D01*
X131138750Y-86868000D01*
X132588000Y-86868000D01*
X132588000Y-86848000D01*
X132842000Y-86848000D01*
X132842000Y-86868000D01*
X134291250Y-86868000D01*
X134450000Y-86709250D01*
X134450000Y-85998691D01*
X134353327Y-85765302D01*
X134174699Y-85586673D01*
X134036999Y-85529636D01*
X134362678Y-85042222D01*
X134479484Y-84455000D01*
X134362678Y-83867778D01*
X134030044Y-83369956D01*
X133532222Y-83037322D01*
X133093226Y-82950000D01*
X132336774Y-82950000D01*
X131897778Y-83037322D01*
X131399956Y-83369956D01*
X131266291Y-83570000D01*
X130897159Y-83570000D01*
X130809999Y-83552663D01*
X130722839Y-83570000D01*
X130722835Y-83570000D01*
X130464690Y-83621348D01*
X130464688Y-83621349D01*
X130464689Y-83621349D01*
X130245845Y-83767576D01*
X130245844Y-83767577D01*
X130171951Y-83816951D01*
X130122577Y-83890844D01*
X126448422Y-87565000D01*
X126099452Y-87565000D01*
X125608783Y-87768242D01*
X125233242Y-88143783D01*
X125030000Y-88634452D01*
X124590200Y-88634452D01*
X124625000Y-88550439D01*
X124625000Y-87979561D01*
X124406534Y-87452138D01*
X124002862Y-87048466D01*
X123475439Y-86830000D01*
X122904561Y-86830000D01*
X122377138Y-87048466D01*
X122045604Y-87380000D01*
X120394252Y-87380000D01*
X120342481Y-87302519D01*
X119900891Y-87007458D01*
X119814082Y-86990191D01*
X120136217Y-86856758D01*
X120511758Y-86481217D01*
X120715000Y-85990548D01*
X120715000Y-85459452D01*
X120511758Y-84968783D01*
X120136217Y-84593242D01*
X119802472Y-84455000D01*
X120136217Y-84316758D01*
X120302975Y-84150000D01*
X122045604Y-84150000D01*
X122377138Y-84481534D01*
X122904561Y-84700000D01*
X123475439Y-84700000D01*
X124002862Y-84481534D01*
X124406534Y-84077862D01*
X124625000Y-83550439D01*
X124625000Y-82979561D01*
X124406534Y-82452138D01*
X124119396Y-82165000D01*
X125350748Y-82165000D01*
X125402519Y-82242481D01*
X125844109Y-82537542D01*
X126233515Y-82615000D01*
X126496485Y-82615000D01*
X126885891Y-82537542D01*
X127327481Y-82242481D01*
X127622542Y-81800891D01*
X127726154Y-81280000D01*
X127622542Y-80759109D01*
X127327481Y-80317519D01*
X126885891Y-80022458D01*
X126496485Y-79945000D01*
X126233515Y-79945000D01*
X125844109Y-80022458D01*
X125402519Y-80317519D01*
X125350748Y-80395000D01*
X123556579Y-80395000D01*
X123256579Y-80095000D01*
X123475439Y-80095000D01*
X124002862Y-79876534D01*
X124406534Y-79472862D01*
X124625000Y-78945439D01*
X124625000Y-78374561D01*
X124406534Y-77847138D01*
X124002862Y-77443466D01*
X123475439Y-77225000D01*
X122904561Y-77225000D01*
X122377138Y-77443466D01*
X121973466Y-77847138D01*
X121755000Y-78374561D01*
X121755000Y-78593422D01*
X120957415Y-77795837D01*
X120908039Y-77721941D01*
X120615300Y-77526338D01*
X120357155Y-77474990D01*
X120357151Y-77474990D01*
X120269990Y-77457653D01*
X120182829Y-77474990D01*
X115637169Y-77474990D01*
X115550009Y-77457653D01*
X115462849Y-77474990D01*
X115462845Y-77474990D01*
X115204700Y-77526338D01*
X115096890Y-77598375D01*
X114985855Y-77672566D01*
X114985854Y-77672567D01*
X114911961Y-77721941D01*
X114862587Y-77795834D01*
X114476438Y-78181983D01*
X114300000Y-78146887D01*
X113740091Y-78258260D01*
X113265423Y-78575424D01*
X113184785Y-78696107D01*
X113158157Y-78562235D01*
X113017809Y-78352191D01*
X112807765Y-78211843D01*
X112560000Y-78162560D01*
X110960000Y-78162560D01*
X110712235Y-78211843D01*
X110502191Y-78352191D01*
X110361843Y-78562235D01*
X110312560Y-78810000D01*
X110312560Y-80605861D01*
X109290845Y-81627577D01*
X109216952Y-81676951D01*
X109167578Y-81750844D01*
X109167576Y-81750846D01*
X109021348Y-81969691D01*
X108978666Y-82184270D01*
X108762862Y-81968466D01*
X108235439Y-81750000D01*
X107664561Y-81750000D01*
X107137138Y-81968466D01*
X106805604Y-82300000D01*
X105142975Y-82300000D01*
X104896217Y-82053242D01*
X104405548Y-81850000D01*
X104256197Y-81850000D01*
X104699909Y-81761740D01*
X105174577Y-81444577D01*
X105491740Y-80969909D01*
X105575000Y-80551332D01*
X105575000Y-79468667D01*
X105491740Y-79050091D01*
X105174576Y-78575423D01*
X104873965Y-78374561D01*
X106515000Y-78374561D01*
X106515000Y-78945439D01*
X106733466Y-79472862D01*
X107137138Y-79876534D01*
X107664561Y-80095000D01*
X108235439Y-80095000D01*
X108762862Y-79876534D01*
X109166534Y-79472862D01*
X109385000Y-78945439D01*
X109385000Y-78374561D01*
X109166534Y-77847138D01*
X108762862Y-77443466D01*
X108235439Y-77225000D01*
X107664561Y-77225000D01*
X107137138Y-77443466D01*
X106733466Y-77847138D01*
X106515000Y-78374561D01*
X104873965Y-78374561D01*
X104699908Y-78258260D01*
X104140000Y-78146887D01*
X103580091Y-78258260D01*
X103105423Y-78575424D01*
X102870000Y-78927759D01*
X102634576Y-78575423D01*
X102159908Y-78258260D01*
X101600000Y-78146887D01*
X101040091Y-78258260D01*
X100565423Y-78575424D01*
X100330000Y-78927759D01*
X100094576Y-78575423D01*
X99619908Y-78258260D01*
X99060000Y-78146887D01*
X98500091Y-78258260D01*
X98025423Y-78575424D01*
X97944785Y-78696107D01*
X97918157Y-78562235D01*
X97777809Y-78352191D01*
X97567765Y-78211843D01*
X97320000Y-78162560D01*
X95720000Y-78162560D01*
X95472235Y-78211843D01*
X95262191Y-78352191D01*
X95121843Y-78562235D01*
X95072560Y-78810000D01*
X95072560Y-79136989D01*
X94874690Y-79176348D01*
X94874688Y-79176349D01*
X94874689Y-79176349D01*
X94655845Y-79322576D01*
X94655844Y-79322577D01*
X94581951Y-79371951D01*
X94532577Y-79445844D01*
X94050846Y-79927575D01*
X93976951Y-79976951D01*
X93781348Y-80269691D01*
X93730000Y-80527836D01*
X93730000Y-80527839D01*
X93712663Y-80615000D01*
X83947000Y-80615000D01*
X83947000Y-78740000D01*
X87770516Y-78740000D01*
X87887322Y-79327222D01*
X88219956Y-79825044D01*
X88717778Y-80157678D01*
X89156774Y-80245000D01*
X89913226Y-80245000D01*
X90352222Y-80157678D01*
X90850044Y-79825044D01*
X91182678Y-79327222D01*
X91299484Y-78740000D01*
X91182678Y-78152778D01*
X90850044Y-77654956D01*
X90562523Y-77462840D01*
X90925533Y-77170491D01*
X91208584Y-76652500D01*
X91226302Y-76560031D01*
X91105246Y-76327000D01*
X89662000Y-76327000D01*
X89662000Y-76347000D01*
X89408000Y-76347000D01*
X89408000Y-76327000D01*
X87964754Y-76327000D01*
X87843698Y-76560031D01*
X87861416Y-76652500D01*
X88144467Y-77170491D01*
X88507477Y-77462840D01*
X88219956Y-77654956D01*
X87887322Y-78152778D01*
X87770516Y-78740000D01*
X83947000Y-78740000D01*
X83947000Y-72790000D01*
X87787560Y-72790000D01*
X87787560Y-74530000D01*
X87836843Y-74777765D01*
X87977191Y-74987809D01*
X88187235Y-75128157D01*
X88253860Y-75141409D01*
X88144467Y-75229509D01*
X87861416Y-75747500D01*
X87843698Y-75839969D01*
X87964754Y-76073000D01*
X89408000Y-76073000D01*
X89408000Y-76053000D01*
X89662000Y-76053000D01*
X89662000Y-76073000D01*
X91105246Y-76073000D01*
X91226302Y-75839969D01*
X91208584Y-75747500D01*
X90925533Y-75229509D01*
X90816140Y-75141409D01*
X90882765Y-75128157D01*
X91092809Y-74987809D01*
X91233157Y-74777765D01*
X91282440Y-74530000D01*
X91282440Y-72790000D01*
X91233157Y-72542235D01*
X91092809Y-72332191D01*
X90882765Y-72191843D01*
X90635000Y-72142560D01*
X88435000Y-72142560D01*
X88187235Y-72191843D01*
X87977191Y-72332191D01*
X87836843Y-72542235D01*
X87787560Y-72790000D01*
X83947000Y-72790000D01*
X83947000Y-67780000D01*
X88087560Y-67780000D01*
X88087560Y-69380000D01*
X88136843Y-69627765D01*
X88277191Y-69837809D01*
X88487235Y-69978157D01*
X88735000Y-70027440D01*
X90335000Y-70027440D01*
X90582765Y-69978157D01*
X90792809Y-69837809D01*
X90933157Y-69627765D01*
X90982440Y-69380000D01*
X90982440Y-67780000D01*
X90933157Y-67532235D01*
X90793005Y-67322484D01*
X90981965Y-66796777D01*
X90954778Y-66226546D01*
X90788864Y-65825995D01*
X90542745Y-65751861D01*
X89714605Y-66580000D01*
X89728748Y-66594142D01*
X89549143Y-66773748D01*
X89535000Y-66759605D01*
X89520858Y-66773748D01*
X89341252Y-66594142D01*
X89355395Y-66580000D01*
X88527255Y-65751861D01*
X88281136Y-65825995D01*
X88088035Y-66363223D01*
X88115222Y-66933454D01*
X88276605Y-67323067D01*
X88136843Y-67532235D01*
X88087560Y-67780000D01*
X83947000Y-67780000D01*
X83947000Y-65572255D01*
X88706861Y-65572255D01*
X89535000Y-66400395D01*
X90363139Y-65572255D01*
X90289005Y-65326136D01*
X89751777Y-65133035D01*
X89181546Y-65160222D01*
X88780995Y-65326136D01*
X88706861Y-65572255D01*
X83947000Y-65572255D01*
X83947000Y-61955031D01*
X87843698Y-61955031D01*
X87861416Y-62047500D01*
X88144467Y-62565491D01*
X88604198Y-62935734D01*
X89170620Y-63101862D01*
X89408000Y-62945582D01*
X89408000Y-61722000D01*
X89662000Y-61722000D01*
X89662000Y-62945582D01*
X89899380Y-63101862D01*
X90465802Y-62935734D01*
X90925533Y-62565491D01*
X91108858Y-62230000D01*
X93712663Y-62230000D01*
X93730001Y-62317165D01*
X93730000Y-65952839D01*
X93712663Y-66040000D01*
X93730000Y-66127161D01*
X93730000Y-66127164D01*
X93781348Y-66385309D01*
X93976951Y-66678049D01*
X94050846Y-66727425D01*
X94562577Y-67239156D01*
X94611951Y-67313049D01*
X94685844Y-67362423D01*
X94685845Y-67362424D01*
X94754262Y-67408139D01*
X94904690Y-67508652D01*
X95162835Y-67560000D01*
X95162839Y-67560000D01*
X95250000Y-67577337D01*
X95337161Y-67560000D01*
X95517025Y-67560000D01*
X95763783Y-67806758D01*
X96120070Y-67954337D01*
X95717337Y-68148236D01*
X95370203Y-68536604D01*
X95227284Y-68881671D01*
X95350626Y-69088000D01*
X96393000Y-69088000D01*
X96393000Y-69068000D01*
X96647000Y-69068000D01*
X96647000Y-69088000D01*
X97689374Y-69088000D01*
X97812716Y-68881671D01*
X97669797Y-68536604D01*
X97322663Y-68148236D01*
X96919930Y-67954337D01*
X97276217Y-67806758D01*
X97651758Y-67431217D01*
X97855000Y-66940548D01*
X97855000Y-66409452D01*
X97651758Y-65918783D01*
X97276217Y-65543242D01*
X96942472Y-65405000D01*
X97276217Y-65266758D01*
X97522975Y-65020000D01*
X98058422Y-65020000D01*
X98175001Y-65136580D01*
X98175000Y-70855479D01*
X98025423Y-70955424D01*
X97790000Y-71307759D01*
X97554576Y-70955423D01*
X97079908Y-70638260D01*
X96636197Y-70550000D01*
X96647002Y-70550000D01*
X96647002Y-70385207D01*
X96853331Y-70507727D01*
X97322663Y-70281764D01*
X97669797Y-69893396D01*
X97812716Y-69548329D01*
X97689374Y-69342000D01*
X96647000Y-69342000D01*
X96647000Y-69362000D01*
X96393000Y-69362000D01*
X96393000Y-69342000D01*
X95350626Y-69342000D01*
X95227284Y-69548329D01*
X95370203Y-69893396D01*
X95717337Y-70281764D01*
X96186669Y-70507727D01*
X96392998Y-70385207D01*
X96392998Y-70550000D01*
X96403803Y-70550000D01*
X95960091Y-70638260D01*
X95485423Y-70955424D01*
X95168260Y-71430092D01*
X95085000Y-71848668D01*
X95085000Y-72931333D01*
X95168260Y-73349909D01*
X95485424Y-73824577D01*
X95960092Y-74141740D01*
X96520000Y-74253113D01*
X97079909Y-74141740D01*
X97554577Y-73824577D01*
X97790000Y-73472241D01*
X98025424Y-73824577D01*
X98500092Y-74141740D01*
X99060000Y-74253113D01*
X99619909Y-74141740D01*
X100094577Y-73824577D01*
X100330000Y-73472241D01*
X100565424Y-73824577D01*
X101040092Y-74141740D01*
X101600000Y-74253113D01*
X102159909Y-74141740D01*
X102634577Y-73824577D01*
X102870000Y-73472241D01*
X103105424Y-73824577D01*
X103580092Y-74141740D01*
X104140000Y-74253113D01*
X104699909Y-74141740D01*
X105174577Y-73824577D01*
X105475268Y-73374561D01*
X106515000Y-73374561D01*
X106515000Y-73945439D01*
X106733466Y-74472862D01*
X107137138Y-74876534D01*
X107664561Y-75095000D01*
X108235439Y-75095000D01*
X108762862Y-74876534D01*
X109166534Y-74472862D01*
X109385000Y-73945439D01*
X109385000Y-73374561D01*
X109166534Y-72847138D01*
X108762862Y-72443466D01*
X108235439Y-72225000D01*
X107664561Y-72225000D01*
X107137138Y-72443466D01*
X106733466Y-72847138D01*
X106515000Y-73374561D01*
X105475268Y-73374561D01*
X105491740Y-73349909D01*
X105575000Y-72931332D01*
X105575000Y-71848668D01*
X110325000Y-71848668D01*
X110325000Y-72931333D01*
X110408260Y-73349909D01*
X110725424Y-73824577D01*
X111200092Y-74141740D01*
X111760000Y-74253113D01*
X112319909Y-74141740D01*
X112794577Y-73824577D01*
X113030000Y-73472241D01*
X113265424Y-73824577D01*
X113740092Y-74141740D01*
X114300000Y-74253113D01*
X114859909Y-74141740D01*
X115334577Y-73824577D01*
X115570000Y-73472241D01*
X115805424Y-73824577D01*
X115955001Y-73924521D01*
X115955001Y-74002835D01*
X115937663Y-74090000D01*
X116006348Y-74435309D01*
X116152576Y-74654154D01*
X116152578Y-74654156D01*
X116201952Y-74728049D01*
X116275845Y-74777423D01*
X118262577Y-76764156D01*
X118311951Y-76838049D01*
X118385844Y-76887423D01*
X118385845Y-76887424D01*
X118604690Y-77033652D01*
X118862835Y-77085000D01*
X118862839Y-77085000D01*
X118950000Y-77102337D01*
X119037161Y-77085000D01*
X125007839Y-77085000D01*
X125095000Y-77102337D01*
X125182161Y-77085000D01*
X125182165Y-77085000D01*
X125440310Y-77033652D01*
X125733049Y-76838049D01*
X125782425Y-76764153D01*
X126929156Y-75617423D01*
X127003049Y-75568049D01*
X127198652Y-75275310D01*
X127250000Y-75017165D01*
X127250000Y-75017161D01*
X127267337Y-74930001D01*
X127250000Y-74842841D01*
X127250000Y-71499252D01*
X127327481Y-71447481D01*
X127622542Y-71005891D01*
X127726154Y-70485000D01*
X127622542Y-69964109D01*
X127327481Y-69522519D01*
X126885891Y-69227458D01*
X126496485Y-69150000D01*
X126233515Y-69150000D01*
X125844109Y-69227458D01*
X125402519Y-69522519D01*
X125107458Y-69964109D01*
X125003846Y-70485000D01*
X125107458Y-71005891D01*
X125402519Y-71447481D01*
X125480001Y-71499253D01*
X125480000Y-74563421D01*
X124728422Y-75315000D01*
X119316579Y-75315000D01*
X117845550Y-73843972D01*
X117874577Y-73824577D01*
X118110000Y-73472241D01*
X118345424Y-73824577D01*
X118820092Y-74141740D01*
X119380000Y-74253113D01*
X119939909Y-74141740D01*
X120414577Y-73824577D01*
X120715268Y-73374561D01*
X121755000Y-73374561D01*
X121755000Y-73945439D01*
X121973466Y-74472862D01*
X122377138Y-74876534D01*
X122904561Y-75095000D01*
X123475439Y-75095000D01*
X124002862Y-74876534D01*
X124406534Y-74472862D01*
X124625000Y-73945439D01*
X124625000Y-73374561D01*
X124406534Y-72847138D01*
X124002862Y-72443466D01*
X123475439Y-72225000D01*
X122904561Y-72225000D01*
X122377138Y-72443466D01*
X121973466Y-72847138D01*
X121755000Y-73374561D01*
X120715268Y-73374561D01*
X120731740Y-73349909D01*
X120815000Y-72931332D01*
X120815000Y-71848667D01*
X120731740Y-71430091D01*
X120414576Y-70955423D01*
X120265000Y-70855480D01*
X120265000Y-70217975D01*
X120382975Y-70100000D01*
X122125604Y-70100000D01*
X122457138Y-70431534D01*
X122984561Y-70650000D01*
X123555439Y-70650000D01*
X124082862Y-70431534D01*
X124486534Y-70027862D01*
X124705000Y-69500439D01*
X124705000Y-68929561D01*
X124486534Y-68402138D01*
X124315146Y-68230750D01*
X130980000Y-68230750D01*
X130980000Y-68941309D01*
X131076673Y-69174698D01*
X131255301Y-69353327D01*
X131488690Y-69450000D01*
X132429250Y-69450000D01*
X132588000Y-69291250D01*
X132588000Y-68072000D01*
X132842000Y-68072000D01*
X132842000Y-69291250D01*
X133000750Y-69450000D01*
X133941310Y-69450000D01*
X134174699Y-69353327D01*
X134353327Y-69174698D01*
X134450000Y-68941309D01*
X134450000Y-68230750D01*
X134291250Y-68072000D01*
X132842000Y-68072000D01*
X132588000Y-68072000D01*
X131138750Y-68072000D01*
X130980000Y-68230750D01*
X124315146Y-68230750D01*
X124082862Y-67998466D01*
X123555439Y-67780000D01*
X122984561Y-67780000D01*
X122457138Y-67998466D01*
X122125604Y-68330000D01*
X120382975Y-68330000D01*
X120136217Y-68083242D01*
X119802472Y-67945000D01*
X120136217Y-67806758D01*
X120511758Y-67431217D01*
X120715000Y-66940548D01*
X120715000Y-66409452D01*
X120511758Y-65918783D01*
X120136217Y-65543242D01*
X119814082Y-65409809D01*
X119900891Y-65392542D01*
X120342481Y-65097481D01*
X120394252Y-65020000D01*
X122050209Y-65020000D01*
X122053466Y-65027862D01*
X122457138Y-65431534D01*
X122984561Y-65650000D01*
X123555439Y-65650000D01*
X124082862Y-65431534D01*
X124486534Y-65027862D01*
X124705000Y-64500439D01*
X124705000Y-63929561D01*
X124486534Y-63402138D01*
X124082862Y-62998466D01*
X123555439Y-62780000D01*
X122984561Y-62780000D01*
X122457138Y-62998466D01*
X122205604Y-63250000D01*
X120394252Y-63250000D01*
X120342481Y-63172519D01*
X119900891Y-62877458D01*
X119511485Y-62800000D01*
X119296578Y-62800000D01*
X119115487Y-62618909D01*
X119134944Y-62599452D01*
X125030000Y-62599452D01*
X125030000Y-63130548D01*
X125233242Y-63621217D01*
X125608783Y-63996758D01*
X126099452Y-64200000D01*
X126448422Y-64200000D01*
X128217577Y-65969156D01*
X128266951Y-66043049D01*
X128340844Y-66092423D01*
X128340845Y-66092424D01*
X128368414Y-66110845D01*
X128559690Y-66238652D01*
X128817835Y-66290000D01*
X128817839Y-66290000D01*
X128904999Y-66307337D01*
X128992159Y-66290000D01*
X131266291Y-66290000D01*
X131393001Y-66479636D01*
X131255301Y-66536673D01*
X131076673Y-66715302D01*
X130980000Y-66948691D01*
X130980000Y-67659250D01*
X131138750Y-67818000D01*
X132588000Y-67818000D01*
X132588000Y-67798000D01*
X132842000Y-67798000D01*
X132842000Y-67818000D01*
X134291250Y-67818000D01*
X134450000Y-67659250D01*
X134450000Y-66948691D01*
X134353327Y-66715302D01*
X134174699Y-66536673D01*
X134036999Y-66479636D01*
X134362678Y-65992222D01*
X134479484Y-65405000D01*
X134362678Y-64817778D01*
X134030044Y-64319956D01*
X133532222Y-63987322D01*
X133093226Y-63900000D01*
X132336774Y-63900000D01*
X131897778Y-63987322D01*
X131399956Y-64319956D01*
X131266291Y-64520000D01*
X129271579Y-64520000D01*
X127700000Y-62948422D01*
X127700000Y-62599452D01*
X127496758Y-62108783D01*
X127121217Y-61733242D01*
X126630548Y-61530000D01*
X126099452Y-61530000D01*
X125608783Y-61733242D01*
X125233242Y-62108783D01*
X125030000Y-62599452D01*
X119134944Y-62599452D01*
X119326534Y-62407862D01*
X119545000Y-61880439D01*
X119545000Y-61309561D01*
X119326534Y-60782138D01*
X118922862Y-60378466D01*
X118793784Y-60325000D01*
X118922862Y-60271534D01*
X119326534Y-59867862D01*
X119545000Y-59340439D01*
X119545000Y-58769561D01*
X119326534Y-58242138D01*
X118922862Y-57838466D01*
X118395439Y-57620000D01*
X117824561Y-57620000D01*
X117297138Y-57838466D01*
X116965604Y-58170000D01*
X115737159Y-58170000D01*
X115649999Y-58152663D01*
X115562839Y-58170000D01*
X115562835Y-58170000D01*
X115304690Y-58221348D01*
X115304688Y-58221349D01*
X115304689Y-58221349D01*
X115085845Y-58367576D01*
X115085844Y-58367577D01*
X115011951Y-58416951D01*
X114962577Y-58490844D01*
X114545000Y-58908421D01*
X114545000Y-58769561D01*
X114326534Y-58242138D01*
X113922862Y-57838466D01*
X113395439Y-57620000D01*
X112824561Y-57620000D01*
X112297138Y-57838466D01*
X111893466Y-58242138D01*
X111675000Y-58769561D01*
X111675000Y-59340439D01*
X111893466Y-59867862D01*
X112297138Y-60271534D01*
X112426216Y-60325000D01*
X112297138Y-60378466D01*
X111893466Y-60782138D01*
X111675000Y-61309561D01*
X111675000Y-61880439D01*
X111893466Y-62407862D01*
X112297138Y-62811534D01*
X112824561Y-63030000D01*
X113293422Y-63030000D01*
X117502577Y-67239156D01*
X117551951Y-67313049D01*
X117625844Y-67362423D01*
X117625845Y-67362424D01*
X117694262Y-67408139D01*
X117844690Y-67508652D01*
X118102835Y-67560000D01*
X118102839Y-67560000D01*
X118190000Y-67577337D01*
X118277161Y-67560000D01*
X118377025Y-67560000D01*
X118623783Y-67806758D01*
X118957528Y-67945000D01*
X118623783Y-68083242D01*
X118248242Y-68458783D01*
X118045000Y-68949452D01*
X118045000Y-69480548D01*
X118248242Y-69971217D01*
X118495000Y-70217975D01*
X118495001Y-70855479D01*
X118345423Y-70955424D01*
X118110000Y-71307759D01*
X117874576Y-70955423D01*
X117399908Y-70638260D01*
X116840000Y-70526887D01*
X116280091Y-70638260D01*
X115805423Y-70955424D01*
X115570000Y-71307759D01*
X115334576Y-70955423D01*
X115185000Y-70855480D01*
X115185000Y-65492159D01*
X115202337Y-65404999D01*
X115185000Y-65317839D01*
X115185000Y-65317835D01*
X115133652Y-65059690D01*
X115028570Y-64902424D01*
X114987424Y-64840845D01*
X114987423Y-64840844D01*
X114938049Y-64766951D01*
X114864156Y-64717577D01*
X113717425Y-63570847D01*
X113668049Y-63496951D01*
X113375310Y-63301348D01*
X113117165Y-63250000D01*
X113117161Y-63250000D01*
X113030000Y-63232663D01*
X112942839Y-63250000D01*
X112762975Y-63250000D01*
X112516217Y-63003242D01*
X112025548Y-62800000D01*
X111494452Y-62800000D01*
X111003783Y-63003242D01*
X110628242Y-63378783D01*
X110425000Y-63869452D01*
X110425000Y-64400548D01*
X110628242Y-64891217D01*
X111003783Y-65266758D01*
X111360070Y-65414337D01*
X110957337Y-65608236D01*
X110610203Y-65996604D01*
X110467284Y-66341671D01*
X110590626Y-66548000D01*
X111633000Y-66548000D01*
X111633000Y-66528000D01*
X111887000Y-66528000D01*
X111887000Y-66548000D01*
X112929374Y-66548000D01*
X113052716Y-66341671D01*
X112909797Y-65996604D01*
X112562663Y-65608236D01*
X112159930Y-65414337D01*
X112516217Y-65266758D01*
X112713198Y-65069777D01*
X113415001Y-65771580D01*
X113415000Y-70855479D01*
X113265423Y-70955424D01*
X113030000Y-71307759D01*
X112794576Y-70955423D01*
X112319908Y-70638260D01*
X111876197Y-70550000D01*
X111887002Y-70550000D01*
X111887002Y-70385207D01*
X112093331Y-70507727D01*
X112562663Y-70281764D01*
X112909797Y-69893396D01*
X113052716Y-69548329D01*
X112929374Y-69342000D01*
X111887000Y-69342000D01*
X111887000Y-69362000D01*
X111633000Y-69362000D01*
X111633000Y-69342000D01*
X110590626Y-69342000D01*
X110467284Y-69548329D01*
X110610203Y-69893396D01*
X110957337Y-70281764D01*
X111426669Y-70507727D01*
X111632998Y-70385207D01*
X111632998Y-70550000D01*
X111643803Y-70550000D01*
X111200091Y-70638260D01*
X110725423Y-70955424D01*
X110408260Y-71430092D01*
X110325000Y-71848668D01*
X105575000Y-71848668D01*
X105575000Y-71848667D01*
X105491740Y-71430091D01*
X105174576Y-70955423D01*
X105025000Y-70855480D01*
X105025000Y-70217975D01*
X105142975Y-70100000D01*
X106725604Y-70100000D01*
X107057138Y-70431534D01*
X107584561Y-70650000D01*
X108155439Y-70650000D01*
X108682862Y-70431534D01*
X109086534Y-70027862D01*
X109305000Y-69500439D01*
X109305000Y-68929561D01*
X109086534Y-68402138D01*
X108682862Y-67998466D01*
X108155439Y-67780000D01*
X107584561Y-67780000D01*
X107057138Y-67998466D01*
X106725604Y-68330000D01*
X105142975Y-68330000D01*
X104896217Y-68083242D01*
X104539930Y-67935663D01*
X104942663Y-67741764D01*
X105289797Y-67353396D01*
X105432716Y-67008329D01*
X110467284Y-67008329D01*
X110610203Y-67353396D01*
X110957337Y-67741764D01*
X111379464Y-67945000D01*
X110957337Y-68148236D01*
X110610203Y-68536604D01*
X110467284Y-68881671D01*
X110590626Y-69088000D01*
X111633000Y-69088000D01*
X111633000Y-68044794D01*
X111464942Y-67945000D01*
X111633000Y-67845206D01*
X111633000Y-66802000D01*
X111887000Y-66802000D01*
X111887000Y-67845206D01*
X112055058Y-67945000D01*
X111887000Y-68044794D01*
X111887000Y-69088000D01*
X112929374Y-69088000D01*
X113052716Y-68881671D01*
X112909797Y-68536604D01*
X112562663Y-68148236D01*
X112140536Y-67945000D01*
X112562663Y-67741764D01*
X112909797Y-67353396D01*
X113052716Y-67008329D01*
X112929374Y-66802000D01*
X111887000Y-66802000D01*
X111633000Y-66802000D01*
X110590626Y-66802000D01*
X110467284Y-67008329D01*
X105432716Y-67008329D01*
X105309374Y-66802000D01*
X104267000Y-66802000D01*
X104267000Y-66822000D01*
X104013000Y-66822000D01*
X104013000Y-66802000D01*
X102970626Y-66802000D01*
X102847284Y-67008329D01*
X102990203Y-67353396D01*
X103337337Y-67741764D01*
X103740070Y-67935663D01*
X103383783Y-68083242D01*
X103008242Y-68458783D01*
X102805000Y-68949452D01*
X102805000Y-69480548D01*
X103008242Y-69971217D01*
X103255001Y-70217976D01*
X103255000Y-70855479D01*
X103105423Y-70955424D01*
X102870000Y-71307759D01*
X102634576Y-70955423D01*
X102159908Y-70638260D01*
X101600000Y-70526887D01*
X101040091Y-70638260D01*
X100565423Y-70955424D01*
X100330000Y-71307759D01*
X100094576Y-70955423D01*
X99945000Y-70855480D01*
X99945000Y-64857161D01*
X99962337Y-64770000D01*
X99945000Y-64682839D01*
X99945000Y-64682835D01*
X99893652Y-64424690D01*
X99753541Y-64215000D01*
X99747424Y-64205845D01*
X99747423Y-64205844D01*
X99698049Y-64131951D01*
X99624156Y-64082577D01*
X99112425Y-63570846D01*
X99063049Y-63496951D01*
X98770310Y-63301348D01*
X98512165Y-63250000D01*
X98512161Y-63250000D01*
X98425000Y-63232663D01*
X98337839Y-63250000D01*
X97522975Y-63250000D01*
X97276217Y-63003242D01*
X96785548Y-62800000D01*
X96254452Y-62800000D01*
X95763783Y-63003242D01*
X95500000Y-63267025D01*
X95500000Y-62596578D01*
X95616579Y-62480000D01*
X96725604Y-62480000D01*
X97057138Y-62811534D01*
X97584561Y-63030000D01*
X98155439Y-63030000D01*
X98682862Y-62811534D01*
X99086534Y-62407862D01*
X99305000Y-61880439D01*
X99305000Y-61309561D01*
X99086534Y-60782138D01*
X98755000Y-60450604D01*
X98755000Y-60199396D01*
X99086534Y-59867862D01*
X99305000Y-59340439D01*
X99305000Y-58769561D01*
X99086534Y-58242138D01*
X98879396Y-58035000D01*
X100598422Y-58035000D01*
X101435000Y-58871579D01*
X101435000Y-59340439D01*
X101653466Y-59867862D01*
X102057138Y-60271534D01*
X102186216Y-60325000D01*
X102057138Y-60378466D01*
X101653466Y-60782138D01*
X101435000Y-61309561D01*
X101435000Y-61880439D01*
X101653466Y-62407862D01*
X101985001Y-62739397D01*
X101985001Y-62777835D01*
X101967663Y-62865000D01*
X102036348Y-63210309D01*
X102182576Y-63429154D01*
X102182578Y-63429156D01*
X102231952Y-63503049D01*
X102305845Y-63552423D01*
X102797026Y-64043604D01*
X102778846Y-64135000D01*
X102882458Y-64655891D01*
X103177519Y-65097481D01*
X103619109Y-65392542D01*
X103736741Y-65415940D01*
X103337337Y-65608236D01*
X102990203Y-65996604D01*
X102847284Y-66341671D01*
X102970626Y-66548000D01*
X104013000Y-66548000D01*
X104013000Y-66528000D01*
X104267000Y-66528000D01*
X104267000Y-66548000D01*
X105309374Y-66548000D01*
X105432716Y-66341671D01*
X105289797Y-65996604D01*
X104942663Y-65608236D01*
X104543259Y-65415940D01*
X104660891Y-65392542D01*
X105098711Y-65100000D01*
X106725604Y-65100000D01*
X107057138Y-65431534D01*
X107584561Y-65650000D01*
X108155439Y-65650000D01*
X108682862Y-65431534D01*
X109086534Y-65027862D01*
X109305000Y-64500439D01*
X109305000Y-63929561D01*
X109086534Y-63402138D01*
X108682862Y-62998466D01*
X108155439Y-62780000D01*
X107584561Y-62780000D01*
X107057138Y-62998466D01*
X106725604Y-63330000D01*
X105207706Y-63330000D01*
X105102481Y-63172519D01*
X104660891Y-62877458D01*
X104271485Y-62800000D01*
X104056578Y-62800000D01*
X103875487Y-62618909D01*
X104086534Y-62407862D01*
X104305000Y-61880439D01*
X104305000Y-61309561D01*
X104086534Y-60782138D01*
X103682862Y-60378466D01*
X103553784Y-60325000D01*
X103682862Y-60271534D01*
X104086534Y-59867862D01*
X104305000Y-59340439D01*
X104305000Y-58769561D01*
X104086534Y-58242138D01*
X103682862Y-57838466D01*
X103155439Y-57620000D01*
X102686579Y-57620000D01*
X101652425Y-56585847D01*
X101603049Y-56511951D01*
X101310310Y-56316348D01*
X101052165Y-56265000D01*
X101052161Y-56265000D01*
X100965000Y-56247663D01*
X100877839Y-56265000D01*
X96323687Y-56265000D01*
X96034540Y-55975853D01*
X95525494Y-55765000D01*
X94974506Y-55765000D01*
X94465460Y-55975853D01*
X94075853Y-56365460D01*
X93865000Y-56874506D01*
X93865000Y-57425494D01*
X94075853Y-57934540D01*
X94465460Y-58324147D01*
X94974506Y-58535000D01*
X95525494Y-58535000D01*
X96034540Y-58324147D01*
X96323687Y-58035000D01*
X96860604Y-58035000D01*
X96653466Y-58242138D01*
X96435000Y-58769561D01*
X96435000Y-59340439D01*
X96653466Y-59867862D01*
X96985000Y-60199396D01*
X96985001Y-60450603D01*
X96725604Y-60710000D01*
X95337161Y-60710000D01*
X95250000Y-60692663D01*
X95162839Y-60710000D01*
X95162835Y-60710000D01*
X94904690Y-60761348D01*
X94685845Y-60907576D01*
X94685844Y-60907577D01*
X94611951Y-60956951D01*
X94562577Y-61030844D01*
X94050844Y-61542577D01*
X93976952Y-61591951D01*
X93927578Y-61665844D01*
X93927576Y-61665846D01*
X93781348Y-61884691D01*
X93712663Y-62230000D01*
X91108858Y-62230000D01*
X91208584Y-62047500D01*
X91226302Y-61955031D01*
X91105246Y-61722000D01*
X89662000Y-61722000D01*
X89408000Y-61722000D01*
X87964754Y-61722000D01*
X87843698Y-61955031D01*
X83947000Y-61955031D01*
X83947000Y-58185000D01*
X87787560Y-58185000D01*
X87787560Y-59925000D01*
X87836843Y-60172765D01*
X87977191Y-60382809D01*
X88187235Y-60523157D01*
X88253860Y-60536409D01*
X88144467Y-60624509D01*
X87861416Y-61142500D01*
X87843698Y-61234969D01*
X87964754Y-61468000D01*
X89408000Y-61468000D01*
X89408000Y-61448000D01*
X89662000Y-61448000D01*
X89662000Y-61468000D01*
X91105246Y-61468000D01*
X91226302Y-61234969D01*
X91208584Y-61142500D01*
X90925533Y-60624509D01*
X90816140Y-60536409D01*
X90882765Y-60523157D01*
X91092809Y-60382809D01*
X91233157Y-60172765D01*
X91282440Y-59925000D01*
X91282440Y-58185000D01*
X91233157Y-57937235D01*
X91092809Y-57727191D01*
X90882765Y-57586843D01*
X90635000Y-57537560D01*
X88435000Y-57537560D01*
X88187235Y-57586843D01*
X87977191Y-57727191D01*
X87836843Y-57937235D01*
X87787560Y-58185000D01*
X83947000Y-58185000D01*
X83947000Y-52835757D01*
X85095000Y-52835757D01*
X85095000Y-53844243D01*
X85480930Y-54775962D01*
X86194038Y-55489070D01*
X87125757Y-55875000D01*
X88134243Y-55875000D01*
X89065962Y-55489070D01*
X89779070Y-54775962D01*
X90165000Y-53844243D01*
X90165000Y-52835757D01*
X130180000Y-52835757D01*
X130180000Y-53844243D01*
X130565930Y-54775962D01*
X131279038Y-55489070D01*
X132210757Y-55875000D01*
X133219243Y-55875000D01*
X134150962Y-55489070D01*
X134864070Y-54775962D01*
X135250000Y-53844243D01*
X135250000Y-52835757D01*
X134864070Y-51904038D01*
X134150962Y-51190930D01*
X133219243Y-50805000D01*
X132210757Y-50805000D01*
X131279038Y-51190930D01*
X130565930Y-51904038D01*
X130180000Y-52835757D01*
X90165000Y-52835757D01*
X89779070Y-51904038D01*
X89065962Y-51190930D01*
X88134243Y-50805000D01*
X87125757Y-50805000D01*
X86194038Y-51190930D01*
X85480930Y-51904038D01*
X85095000Y-52835757D01*
X83947000Y-52835757D01*
X83947000Y-49657000D01*
X137033000Y-49657000D01*
X137033000Y-102743000D01*
M02*
