%TF.GenerationSoftware,KiCad,Pcbnew,6.0.0-rc1-unknown-7c11d03~84~ubuntu18.04.1*%
%TF.CreationDate,2018-08-29T10:07:08+03:00*%
%TF.ProjectId,Subsonic_Filter,537562736F6E69635F46696C7465722E,rev?*%
%TF.SameCoordinates,Original*%
%TF.FileFunction,Paste,Bot*%
%TF.FilePolarity,Positive*%
%FSLAX46Y46*%
G04 Gerber Fmt 4.6, Leading zero omitted, Abs format (unit mm)*
G04 Created by KiCad (PCBNEW 6.0.0-rc1-unknown-7c11d03~84~ubuntu18.04.1) date Wed Aug 29 10:07:08 2018*
%MOMM*%
%LPD*%
G01*
G04 APERTURE LIST*
%ADD10C,0.500000*%
G04 APERTURE END LIST*
D10*
X83820000Y-49530000D02*
X137160000Y-49530000D01*
X83820000Y-102870000D02*
X83820000Y-49530000D01*
X137160000Y-102870000D02*
X83820000Y-102870000D01*
X137160000Y-49530000D02*
X137160000Y-102870000D01*
M02*
